Division,WeightClassKg,Place,Name,Team,BodyweightKg,Best3SquatKg,Best3BenchKg,Best3DeadliftKg,TotalKg,Equipment,Event,Sex
Boys,52,1,Joshua Oyewele,North Crowley,50.17,102.06,56.7,113.4,272.16,Single-ply,SBD,M
Boys,56,1,Dawson Caruso,Burleson,55.16,185.97,102.06,195.04,483.08,Single-ply,SBD,M
Boys,56,2,Jason Jones,Burleson,53.07,131.54,77.11,163.29,371.95,Single-ply,SBD,M
Boys,56,3,Hunter Ford,Burleson Centennial,55.79,127.01,83.91,151.95,362.87,Single-ply,SBD,M
Boys,56,4,Jabril Clayborne,North Crowley,55.43,122.47,77.11,158.76,358.34,Single-ply,SBD,M
Boys,56,5,Ethan Ford,Burleson Centennial,54.79,122.47,65.77,167.83,356.07,Single-ply,SBD,M
Boys,56,6,David Cook,Burleson Centennial,52.98,111.13,70.31,133.81,315.25,Single-ply,SBD,M
Boys,60,1,Joey Caruso,Burleson,57.7,179.17,104.33,183.7,467.2,Single-ply,SBD,M
Boys,60,2,Michael Jones,Midlothian,56.7,117.93,79.38,106.59,303.91,Single-ply,SBD,M
Boys,67.5,1,Sean Wofford,Burleson,65.95,199.58,108.86,235.87,544.31,Single-ply,SBD,M
Boys,67.5,2,David Tubig,Burleson,61.51,195.04,106.59,231.33,532.97,Single-ply,SBD,M
Boys,67.5,3,Shayne Stremenski,Burleson Centennial,62.41,181.44,117.93,165.56,464.93,Single-ply,SBD,M
Boys,67.5,4,Chris Gomez,Midlothian,66.95,165.56,88.45,165.56,419.57,Single-ply,SBD,M
Boys,67.5,5,Chris Pitts,North Crowley,66.41,151.95,95.25,154.22,401.43,Single-ply,SBD,M
Boys,67.5,6,Hunter Freeman,Midlothian,65.95,142.88,102.06,136.08,381.02,Single-ply,SBD,M
Boys,67.5,7,Bruce Bivens,Joshua,65.41,142.88,83.91,151.95,378.75,Single-ply,SBD,M
Boys,75,1,Taylor Bissell,Burleson,73.21,235.87,138.35,263.08,637.3,Single-ply,SBD,M
Boys,75,2,Campbell Masteller,Burleson,74.48,181.44,115.67,215.46,512.56,Single-ply,SBD,M
Boys,75,3,Jayton DeLeon,Midlothian,73.75,149.69,83.91,181.44,415.04,Single-ply,SBD,M
Boys,75,4,Sean Wright,North Crowley,71.58,131.54,83.91,192.78,408.23,Single-ply,SBD,M
Boys,75,5,Steven Davis,Burleson Centennial,67.86,149.69,86.18,165.56,401.43,Single-ply,SBD,M
Boys,75,6,Nolan Samek,Midlothian,74.84,138.35,81.65,154.22,374.21,Single-ply,SBD,M
Boys,75,7,Anthony Ramirez,Midlothian,72.76,133.81,79.38,151.95,365.14,Single-ply,SBD,M
Boys,90,1,Brandon Ragoonath,Burleson,86.09,258.55,170.1,285.76,714.41,Single-ply,SBD,M
Boys,90,2,Levi Phillips,Burleson Centennial,86.91,215.46,129.27,222.26,566.99,Single-ply,SBD,M
Boys,90,3,Josh Van Valen,Burleson Centennial,82.92,185.97,117.93,222.26,526.17,Single-ply,SBD,M
Boys,90,4,Michael Farnsworth,Midlothian,88.18,199.58,115.67,183.7,498.95,Single-ply,SBD,M
Boys,100,1,Ernesto Ibarra,Cleburne,98.34,281.23,163.29,267.62,712.14,Single-ply,SBD,M
Boys,100,2,Josh Brown,North Crowley,97.52,258.55,129.27,247.21,635.03,Single-ply,SBD,M
Boys,100,3,Kyle Cunningham,Burleson,99.25,231.33,136.08,231.33,598.74,Single-ply,SBD,M
Boys,100,4,Dylan Hipsman,Midlothian,93.17,213.19,127.01,249.48,589.67,Single-ply,SBD,M
Boys,100,5,Cailon Washington,North Crowley,94.98,204.12,127.01,215.46,546.58,Single-ply,SBD,M
Boys,100,6,Brayden Walker #2,Burleson Centennial,97.7,183.7,117.93,229.06,530.7,Single-ply,SBD,M
Boys,110,1,Nathaniel Rutherford,Joshua,107.77,292.57,158.76,260.82,712.14,Single-ply,SBD,M
Boys,110,2,Thomas Godi,Burleson Centennial,109.77,251.74,158.76,215.46,625.96,Single-ply,SBD,M
Boys,110,3,Zaier Berry,North Crowley,105.32,226.8,111.13,219.99,557.92,Single-ply,SBD,M
Boys,110,4,Abdullah Kahn,North Crowley,100.97,170.1,113.4,206.38,489.88,Single-ply,SBD,M
Boys,110,5,Steven Pena,North Crowley,103.24,183.7,92.99,204.12,480.81,Single-ply,SBD,M
Boys,110,6,Bubba Walton,Midlothian,103.51,170.1,106.59,185.97,462.66,Single-ply,SBD,M
Boys,110,7,Austin Lawrence,Midlothian,103.87,167.83,90.72,172.37,430.91,Single-ply,SBD,M
Boys,125,1,Kody Russey,Burleson,122.65,303.91,199.58,326.59,830.07,Single-ply,SBD,M
Boys,125,2,Holt Honeycutt,Joshua,114.85,222.26,120.2,197.31,539.77,Single-ply,SBD,M
Boys,125,DQ,Alejandro Rodriguez,Joshua,118.93,224.53,,,,Single-ply,SBD,M
Boys,125+,1,Kenyette King,North Crowley,141.43,258.55,158.76,254.01,671.32,Single-ply,SBD,M
Boys,125+,2,Eliahs Williams,Burleson,131,251.74,154.22,263.08,669.05,Single-ply,SBD,M
Boys,125+,3,Chris Robles,Cleburne,125.55,210.92,158.76,210.92,580.6,Single-ply,SBD,M
Boys,125+,4,Weston Hunter,Burleson Centennial,130.82,224.53,117.93,208.65,551.11,Single-ply,SBD,M
Boys,125+,5,Jordan Ingram,North Crowley,147.96,165.56,113.4,170.1,449.06,Single-ply,SBD,M
