Name,Team,Division,BodyweightKg,WeightClassKg,Bench1Kg,Bench2Kg,Bench3Kg,Best3BenchKg,TotalKg,Place,Sex,Event,Equipment,AgeClass
Gloria Fitzpatrick,SE,F-E-M2,70.9,72,55,60,-62.5,60,60,1,F,B,Single-ply,49.5-58.6
Julie Briggs,SE,F-E-M2,71.3,72,42.5,47.5,52.5,52.5,52.5,2,F,B,Single-ply,49.5-58.6
Ana Rojo,SE,F-E-Snr,63,63,70,75,77.5,77.5,77.5,1,F,B,Single-ply,23.5-38.5
Lucy Owen,SW,F-E-Snr,61.5,63,70,75,-80,75,75,2,F,B,Single-ply,23.5-38.5
Elizabeth Mills,SE,F-E-JR,74.1,84,90,95,-100,95,95,1,F,B,Single-ply,18.5-22.5
Nicola Gregan,SE,F-C-M1,71,72,65,67.5,70,70,70,1,F,B,Raw,39.5-48.6
Emma Ludlow,SE,F-C-Snr,56.2,57,60,-65,65,65,65,1,F,B,Raw,23.5-38.5
Jade Simmons,SE,F-C-Snr,56.4,57,-60,-65,-65,,,DQ,F,B,Raw,23.5-38.5
Rachael Camp,SE,F-C-Snr,60.8,63,50,55,57.5,57.5,57.5,1,F,B,Raw,23.5-38.5
Rachael Leck,SW,F-C-Snr,60.8,63,-50,52.5,57.5,57.5,57.5,2,F,B,Raw,18.5-22.5
Anthea Reeves,SE,F-C-Snr,64.9,72,55,-60,60,60,60,1,F,B,Raw,23.5-38.5
Emily Dodd,SE,F-C-JR,56.4,57,70,75,77.5,77.5,77.5,1,F,B,Raw,18.5-22.5
Teneka Walford,SE,F-C-JR,91.1,84+,67.5,72.5,-77.5,72.5,72.5,1,F,B,Raw,18.5-22.5
Ross Arbery,SE,M-E-Snr,119.3,120,172.5,182.5,-192.5,182.5,182.5,1,M,B,Single-ply,23.5-38.5
Jeff Fearon,SE,M-C-M4,89.4,93,50,60,65,65,65,1,M,B,Raw,69.5-78.5
Edward Muggeridge,SE,M-C-M3,90.9,93,75,80,85,85,85,1,M,B,Raw,59.5-68.5
David Glendower,SE,M-C-M2,95.2,105,72.5,77.5,80,80,80,1,M,B,Raw,49.5-58.6
Nigel Moss,SE,M-C-M2,131.4,120+,165,175,182.5,182.5,182.5,1,M,B,Raw,49.5-58.6
Chris Simmons,SE,M-C-Sen,72.4,74,-145,-145,145,145,145,1,M,B,Raw,23.5-38.5
Jack Spreadbury,SE,M-C-Sen,73.3,74,127.5,135,140,140,140,2,M,B,Raw,23.5-38.5
Daniel Simmons,SE,M-C-Sen,72.6,74,115,120,-122.5,120,120,3,M,B,Raw,23.5-38.5
Ben Lucas,GL,M-C-Sen,82.1,83,140,-147.5,147.5,147.5,147.5,1,M,B,Raw,23.5-38.5
James Ingram,SE,M-C-Sen,81.8,83,90,95,100,100,100,2,M,B,Raw,23.5-38.5
Alexander Kolliari-Turner,SE,M-C-Sen,84,93,117.5,122.5,-127.5,122.5,122.5,1,M,B,Raw,23.5-38.5
Jack Morecroft,SE,M-C-Sen,103.9,105,135,142.5,-147.5,142.5,142.5,1,M,B,Raw,23.5-38.5
Mihails Monastirskis,WM,M-C-Sen,103.7,105,-215,-225,-225,,,DQ,M,B,Raw,23.5-38.5
Harry O'Neilly,SE,M-C-Sen,115.8,120,180,190,195,195,195,1,M,B,Raw,23.5-38.5
Calum Nicholls,SE,M-C-Sen,142.8,120+,180,190,200,200,200,1,M,B,Raw,23.5-38.5
Jake Morrison,EM,M-C-JR,66,66,75,82.5,87.5,87.5,87.5,1,M,B,Raw,18.5-22.5
Dan Magee,SE,M-C-JR,82.1,83,147.5,155.5,-160,155.5,155.5,1,M,B,Raw,18.5-22.5
Joey Watson,SE,M-C-JR,101.8,105,170,175,-180,175,175,1,M,B,Raw,18.5-22.5
Edward Owen,SE,M-C-SJ,79.7,83,-90,95,-105,95,95,1,M,B,Raw,14-15.5
