Place,Name,State,WeightClassKg,BodyweightKg,Age,Best3SquatKg,Best3BenchKg,Best3DeadliftKg,TotalKg,Sex,Division,Equipment,Event
1,Haiyen Ackerman,SC,56,54.30,25,97.50,55.00,125.00,277.50,F,Open,Raw,SBD
1,Anna Culbertson,NC,67.5,62.90,24,97.50,72.50,110.00,280.00,F,Open,Raw,SBD
1,Crystal McCullough,NC,75,72.10,39,122.50,72.50,160.00,355.00,F,Open,Raw,SBD
2,Opal Greenway,TN,75,73.40,30,110.00,47.50,132.50,290.00,F,Open,Raw,SBD
1,Jovani Gonzalez,AR,67.5,67.40,18,145.00,121.00,195.00,461.00,M,Juniors 18-19,Raw,SBD
1,Logan Vincent,TN,82.5,80.60,20,150.00,90.00,205.00,445.00,M,Juniors 20-23,Raw,SBD
1,Douglas Matthews,AR,90,89.90,19,222.50,135.00,227.50,585.00,M,Juniors 18-19,Raw,SBD
1,Kyle Mask,TN,100,98.20,33,260.00,182.50,275.00,717.50,M,Open,Raw,SBD
2,Lucas Hampton,VA,100,99.00,26,170.00,105.00,207.50,482.50,M,Open,Raw,SBD
1,Jeremiah Hampton,VA,125,111.90,34,240.00,160.00,257.50,657.50,M,Open,Raw,SBD
2,DJ Oliver,TN,125,119.50,26,220.00,170.00,235.00,625.00,M,Open,Raw,SBD
3,Douglas McIntyre,WV,125,116.40,26,212.50,125.00,235.00,572.50,M,Open,Raw,SBD
1,Larry Fee Jr,NC,140,131.80,44,227.50,200.00,250.00,677.50,M,Open,Raw,SBD
1,David Chatman,NC,140+,156.00,24,312.50,217.50,282.50,812.50,M,Open,Raw,SBD
1,Joey Barbera,TN,82.5,80.80,39,215.00,125.00,242.50,582.50,M,Submasters 35-39,Raw,SBD
1,Larry Fee Jr,NC,140,131.80,44,227.50,200.00,250.00,677.50,M,Masters 40-44,Raw,SBD
1,Jordan Fender,NC,75,74.90,21,220.00,132.50,247.50,600.00,M,Juniors 20-23,Wraps,SBD
1,Austin Sloan,NC,82.5,81.50,16,157.50,82.50,185.00,425.00,M,Juniors 16-17,Wraps,SBD
1,Jacob Stone,KY,82.5,81.70,21,177.50,122.50,217.50,517.50,M,Juniors 20-23,Wraps,SBD
1,Jordan Richardson,NC,90,89.70,18,180.00,105.00,205.00,490.00,M,Juniors 18-19,Wraps,SBD
1,Tyler Cummings,GA,110,109.80,23,307.50,210.00,315.00,832.50,M,Juniors 20-23,Wraps,SBD
1,Jordan Fender,NC,75,74.90,21,220.00,132.50,247.50,600.00,M,Open,Wraps,SBD
1,Logan Edwards,TN,82.5,82.30,25,207.50,150.00,232.50,590.00,M,Open,Wraps,SBD
2,Cameron Wade,SC,82.5,81.50,23,180.00,137.50,220.00,537.50,M,Open,Wraps,SBD
1,John Rivas,VA,110,109.60,25,365.00,222.50,350.00,937.50,M,Open,Wraps,SBD
1,Jesus Varela Goicoechea,NC,125,120.30,43,290.00,160.00,295.00,745.00,M,Open,Wraps,SBD
2,Mitchell Obenchain,VA,125,120.50,32,237.50,185.00,262.50,685.00,M,Open,Wraps,SBD
1,CJ Jones,VA,140+,155.90,29,192.50,145.00,272.50,610.00,M,Open,Wraps,SBD
1,Danny F Aikers,VA,75,73.90,48,60.00,100.00,60.00,220.00,M,Masters 45-49,Wraps,SBD
1,Carmine Grassi,TN,110,108.40,46,190.00,155.00,240.00,585.00,M,Masters 45-49,Wraps,SBD
1,Jesus Varela Goicoechea,NC,125,120.30,43,290.00,160.00,295.00,745.00,M,Masters 40-44,Wraps,SBD
1,Robert Dunn,NC,125,117.60,50,280.00,210.00,240.00,730.00,M,Masters 50-54,Single-ply,SBD
1,Thomas Arrington,NC,125,112.30,75,185.00,142.50,182.50,510.00,M,Masters 75-79,Single-ply,SBD
1,Jason Carter,TN,140+,155.70,44,102.50,272.50,280.00,655.00,M,Masters 40-44,Multi-ply,SBD
1,Michael Kimmel,TN,75,73.80,21,,117.50,180.00,297.50,M,Juniors 20-23,Raw,BD
1,Andrew McDonald,TN,82.5,80.40,16,,115.00,237.50,352.50,M,Juniors 16-17,Raw,BD
1,Brandon Arthur,NC,100,99.00,20,,180.00,245.00,425.00,M,Juniors 20-23,Raw,BD
1,Michael Kimmel,TN,75,73.80,21,,117.50,180.00,297.50,M,Open,Raw,BD
1,Brandon Arthur,NC,100,99.00,20,,180.00,245.00,425.00,M,Open,Raw,BD
2,James Johnson,TN,100,98.90,28,,155.00,262.50,417.50,M,Open,Raw,BD
3,Jeremy Sommers,TN,100,100.00,25,,115.00,207.50,322.50,M,Open,Raw,BD
1,Joey Carrier,TN,110,103.80,44,,202.50,252.50,455.00,M,Open,Raw,BD
1,Donald McIntyre,WV,125,116.40,26,,125.00,235.00,360.00,M,Open,Raw,BD
1,Joey Carrier,TN,110,103.80,44,,202.50,252.50,455.00,M,Masters 40-44,Raw,BD
1,Chris Thomas,KY,82.5,81.30,25,,170.00,207.50,377.50,M,Open,Single-ply,BD
1,Clarence Jackson,GA,125,111.50,43,,175.00,,175.00,M,Open,Raw,B
1,Chris Thomas,KY,82.5,81.30,25,,170.00,,170.00,M,Open,Single-ply,B
1,Robert Dunn,NC,125,117.60,50,,210.00,,210.00,M,Masters 50-54,Single-ply,B
1,Ralph Markham,VA,110,107.90,48,,,272.50,272.50,M,Masters 45-49,Raw,D
