Division,WeightClassKg,Place,Name,Team,BodyweightKg,Best3SquatKg,Best3BenchKg,Best3DeadliftKg,TotalKg,Equipment,Event,Sex
Boys,52,1,DJ Walker,Georgetown East View,50.08,77.11,52.16,102.06,231.33,Single-ply,SBD,M
Boys,52,2,Hayden Hughes,Georgetown,49.99,74.84,47.63,83.91,206.38,Single-ply,SBD,M
Boys,56,1,Michael Guerrero,Georgetown East View,52.34,129.27,70.31,136.08,335.66,Single-ply,SBD,M
Boys,60,1,Owen Mallard,Georgetown,57.06,158.76,74.84,176.9,410.5,Single-ply,SBD,M
Boys,60,2,Dominic Hamilton,Georgetown East View,58.88,140.61,83.91,156.49,381.02,Single-ply,SBD,M
Boys,60,3,Michael Marullo,Georgetown East View,57.15,136.08,86.18,124.74,347,Single-ply,SBD,M
Boys,60,4,Ryan Wall,Georgetown East View,59.42,70.31,43.09,117.93,231.33,Single-ply,SBD,M
Boys,60,5,Kaden Harris,Georgetown East View,56.7,61.23,43.09,83.91,188.24,Single-ply,SBD,M
Boys,67.5,1,Aiden Lee Wen,Austin Westlake,66.32,142.88,97.52,158.76,399.16,Single-ply,SBD,M
Boys,67.5,2,Christopher Brenham,Georgetown,66.13,158.76,77.11,158.76,394.63,Single-ply,SBD,M
Boys,67.5,3,Jordan Kuglin,Georgetown East View,65.68,147.42,72.57,156.49,376.48,Single-ply,SBD,M
Boys,67.5,DQ,Chance McGuire,Georgetown,61.96,,,,,Single-ply,SBD,M
Boys,75,1,Eduardo Perez,Georgetown,69.58,149.69,81.65,176.9,408.23,Single-ply,SBD,M
Boys,75,2,Javon Burrell,Georgetown East View,69.94,145.15,83.91,163.29,392.36,Single-ply,SBD,M
Boys,75,3,Erik Anderson #3,Georgetown,74.75,154.22,92.99,142.88,390.09,Single-ply,SBD,M
Boys,75,4,Steven Crider,Austin Westlake,73.84,147.42,86.18,138.35,371.95,Single-ply,SBD,M
Boys,75,5,Trace Glanville,Georgetown,71.58,122.47,79.38,129.27,331.12,Single-ply,SBD,M
Boys,75,6,Caden Legget,Georgetown,72.85,113.4,68.04,136.08,317.51,Single-ply,SBD,M
Boys,82.5,1,Matt May,Georgetown,81.19,165.56,92.99,183.7,442.25,Single-ply,SBD,M
Boys,82.5,2,Joey Montoya,Georgetown,78.74,154.22,97.52,181.44,433.18,Single-ply,SBD,M
Boys,82.5,3,Kody Markert,Georgetown,80.47,136.08,86.18,142.88,365.14,Single-ply,SBD,M
Boys,82.5,4,Walker Fain,Georgetown,80.74,151.95,88.45,102.06,342.46,Single-ply,SBD,M
Boys,82.5,5,Chris Martinez,Georgetown,79.47,124.74,74.84,124.74,324.32,Single-ply,SBD,M
Boys,82.5,6,Jamie Sanchez,Georgetown East View,80.92,104.33,74.84,120.2,299.37,Single-ply,SBD,M
Boys,82.5,7,Chandler Carpenter,Georgetown East View,76.66,97.52,61.23,115.67,274.42,Single-ply,SBD,M
Boys,82.5,8,Ryan Bailey,Georgetown East View,81.37,70.31,58.97,104.33,233.6,Single-ply,SBD,M
Boys,82.5,DQ,Alfred Garcia,Georgetown,,,,,,Single-ply,SBD,M
Boys,90,1,Austin Naiser,Georgetown East View,84.28,183.7,124.74,181.44,489.88,Single-ply,SBD,M
Boys,90,2,Steele O'Connor,Austin Westlake,88.99,172.37,111.13,174.63,458.13,Single-ply,SBD,M
Boys,90,3,Kyle Urbanosky,Georgetown,85.73,174.63,90.72,165.56,430.91,Single-ply,SBD,M
Boys,90,4,Bobby Magee,Austin Westlake,88.27,167.83,92.99,165.56,426.38,Single-ply,SBD,M
Boys,90,5,Paden Brown,Georgetown,89.72,156.49,102.06,161.03,419.57,Single-ply,SBD,M
Boys,90,6,Sam King,Georgetown East View,89.77,124.74,90.72,156.49,371.95,Single-ply,SBD,M
Boys,90,7,Frank Durante,Georgetown,83.87,136.08,83.91,136.08,356.07,Single-ply,SBD,M
Boys,90,DQ,Kennan Duncan,Georgetown,,,,,,Single-ply,SBD,M
Boys,90,DQ,Kade Ball,Austin Westlake,88.09,181.44,,170.1,,Single-ply,SBD,M
Boys,100,1,Keeland Moore,Georgetown,97.98,226.8,142.88,210.92,580.6,Single-ply,SBD,M
Boys,100,2,Hunter Creasey,Georgetown,95.89,208.65,117.93,242.67,569.26,Single-ply,SBD,M
Boys,100,3,Derick Juptner,Georgetown,98.88,204.12,142.88,215.46,562.45,Single-ply,SBD,M
Boys,100,4,Jovany Araujo,Georgetown East View,97.34,170.1,104.33,206.38,480.81,Single-ply,SBD,M
Boys,100,5,David Mata,Georgetown,97.61,199.58,104.33,170.1,474,Single-ply,SBD,M
Boys,100,6,Justin Mellanbrunch,Austin Westlake,94.89,147.42,111.13,161.03,419.57,Single-ply,SBD,M
Boys,100,7,Nick Furr,Georgetown,93.17,149.69,77.11,181.44,408.23,Single-ply,SBD,M
Boys,100,8,Braden Cassity,Austin Westlake,91.26,136.08,81.65,161.03,378.75,Single-ply,SBD,M
Boys,100,DQ,Harrison Schuler,Georgetown,96.57,,,,,Single-ply,SBD,M
Boys,110,1,Dameion Cavazos,Georgetown,106.96,222.26,136.08,188.24,546.58,Single-ply,SBD,M
Boys,110,DQ,Jameson White,Georgetown,107.68,,,,,Single-ply,SBD,M
Boys,125,1,Allan Edelmon,Georgetown East View,122.47,215.46,133.81,204.12,553.38,Single-ply,SBD,M
Boys,125,2,Jacoby Coleman,Georgetown,114.85,158.76,102.06,181.44,442.25,Single-ply,SBD,M
Boys,125,3,Dallin Garza,Austin Westlake,116.57,158.76,113.4,161.03,433.18,Single-ply,SBD,M
Boys,125,4,Jackson Pickard,Georgetown East View,117.93,170.1,77.11,154.22,401.43,Single-ply,SBD,M
Boys,125,5,Zaro Taoln,Georgetown,114.85,124.74,90.72,158.76,374.21,Single-ply,SBD,M
Boys,125+,1,Kade Clapper,Georgetown,144.7,249.48,158.76,219.99,628.23,Single-ply,SBD,M
Boys,125+,2,Grey Griffin,Austin Westlake,144.61,183.7,104.33,156.49,444.52,Single-ply,SBD,M
Boys,125+,3,Danny O'Brien,Georgetown East View,128.37,108.86,92.99,136.08,337.93,Single-ply,SBD,M
Boys,125+,DQ,Stephan Zabie,Austin Westlake,,,,,,Single-ply,SBD,M
