Name,Sex,CyrillicName,BodyweightKg,Bench1Kg,Bench2Kg,Bench3Kg,Best3BenchKg,Bench4Kg,TotalKg,WeightClassKg,Event,Equipment,Tested,Deadlift1Kg,Deadlift2Kg,Deadlift3Kg,Best3DeadliftKg,Deadlift4Kg,Squat1Kg,Squat2Kg,Squat3Kg,Best3SquatKg,Squat4Kg,Division,BirthDate,Age,Place
Elena Butko,F,Елена Бутко,41.3,-57.5,57.5,-62.5,57.5,,57.5,44,B,Raw,Yes,,,,,,,,,,,Amateur Open,1985-10-19,29,1
Darya Polyakova,F,Дарья Полякова,43.3,47.5,-50,-50,47.5,,47.5,44,B,Raw,Yes,,,,,,,,,,,Amateur Open,1988-06-25,27,2
Viktoriya Isychko,F,Виктория Исычко,47.9,-42.5,-42.5,42.5,42.5,,42.5,48,B,Raw,Yes,,,,,,,,,,,Amateur Open,1991-04-23,24,1
Yuliya Mikhaylova,F,Юлия Михайлова,50.8,52.5,-57.5,57.5,57.5,,57.5,52,B,Raw,Yes,,,,,,,,,,,Amateur Open,1982-02-18,33,1
Marina Tereshkova,F,Марина Терешкова,49.6,50,-55,-55,50,,50,52,B,Raw,Yes,,,,,,,,,,,Amateur Open,1982-06-23,33,2
Olga Burchakova,F,Ольга Бурчакова,55.4,40,-45,-45,40,,40,56,B,Raw,Yes,,,,,,,,,,,Amateur Teen 13-15,2001-02-19,14,1
Marina Sevostyanova,F,Марина Севостьянова,55.7,55,65,-72.5,65,,65,56,B,Raw,Yes,,,,,,,,,,,Amateur Open,1982-09-28,,1
Olga Chernova,F,Ольга Чернова,55.6,45,50,-55,50,,50,56,B,Raw,Yes,,,,,,,,,,,Amateur Open,1989-05-27,26,2
Anna Kovaleva,F,Анна Ковалева,67.5,60,-65,-65,60,,60,67.5,B,Raw,Yes,,,,,,,,,,,Amateur Open 20-23,1995-02-24,20,1
Anna Kovaleva,F,Анна Ковалева,67.5,60,-65,-65,60,,60,67.5,B,Raw,Yes,,,,,,,,,,,Amateur Open,1995-02-24,20,1
Natalya Chubanova,F,Наталья Чубанова,64,-65,-65,-65,,,,67.5,B,Raw,Yes,,,,,,,,,,,Amateur Open,1988-10-11,26,DQ
Viktor Chebykin,M,Виктор Чебыкин,66.5,110,-115,-115,110,,110,67.5,B,Raw,Yes,,,,,,,,,,,Amateur Open 20-23,1993-09-29,,1
Dmitriy Proydakov,M,Дмитрий Пройдаков,66.3,100,-105,107.5,107.5,,107.5,67.5,B,Raw,Yes,,,,,,,,,,,Amateur Open 20-23,1992-10-02,22,2
Viktor Chebykin,M,Виктор Чебыкин,66.5,110,-115,-115,110,,110,67.5,B,Raw,Yes,,,,,,,,,,,Amateur Open,1993-09-29,,1
Aleksandr Levchenko,M,Александр Левченко,72.7,105,112.5,117.5,117.5,,117.5,75,B,Raw,Yes,,,,,,,,,,,Amateur Teen 16-17,1997-10-13,17,1
Oleg Lysenko,M,Олег Лысенко,73.8,97.5,-107.5,,97.5,,97.5,75,B,Raw,Yes,,,,,,,,,,,Amateur Teen 16-17,1998-07-24,17,2
Igor Petrenko,M,Игорь Петренко,74.9,110,-117.5,-117.5,110,,110,75,B,Raw,Yes,,,,,,,,,,,Amateur Teen 18-19,1996-07-01,19,1
Nikolay Nekhoroshev,M,Николай Нехорошев,72.9,120,-135,135,135,,135,75,B,Raw,Yes,,,,,,,,,,,Amateur Open 20-23,1993-09-27,,1
Dmitriy Osipov,M,Дмитрий Осипов,72.5,120,-135,-135,120,,120,75,B,Raw,Yes,,,,,,,,,,,Amateur Open 20-23,1991-10-07,23,2
Ivan Sokolenko,M,Иван Соколенко,70.7,145,150,155,155,,155,75,B,Raw,Yes,,,,,,,,,,,Amateur Open,1986-02-02,29,1
Rinat Abdyushev,M,Ринат Абдюшев,74.3,125,135,137.5,137.5,,137.5,75,B,Raw,Yes,,,,,,,,,,,Amateur Open,1990-01-24,25,2
Sergey Zaytsev,M,Сергей Зайцев,74.1,127.5,-135,-135,127.5,,127.5,75,B,Raw,Yes,,,,,,,,,,,Amateur Open,1989-11-07,25,3
Aleksey Leza,M,Алексей Леза,73.4,120,-135,-135,120,,120,75,B,Raw,Yes,,,,,,,,,,,Amateur Open,1985-12-09,29,4
Maksim Pavlov,M,Максим Павлов,78.7,150,-155,155,155,,155,82.5,B,Raw,Yes,,,,,,,,,,,Amateur Open 20-23,1995-04-27,20,1
Andrey Svidin,M,Андрей Свидин,81.6,167.5,180,-192.5,180,,180,82.5,B,Raw,Yes,,,,,,,,,,,Amateur Open,1980-02-01,35,1
Nikolay Reshetnyak,M,Николай Решетняк,77.7,150,155,-160,155,,155,82.5,B,Raw,Yes,,,,,,,,,,,Amateur Open,1991-02-17,24,2
Aleksey Goncharenko,M,Алексей Гончаренко,78.2,145,150,-155,150,,150,82.5,B,Raw,Yes,,,,,,,,,,,Amateur Open,1981-03-24,34,3
Maksim Mitrofanov,M,Максим Митрофанов,82,117.5,122.5,-127.5,122.5,,122.5,82.5,B,Raw,Yes,,,,,,,,,,,Amateur Open,1976-11-07,38,4
Aleksandr Bondarenko,M,Александр Бондаренко,81.1,-140,-145,-145,,,,82.5,B,Raw,Yes,,,,,,,,,,,Amateur Open,1984-09-06,31,DQ
Artur Akopyan,M,Артур Акопян,89.2,122.5,-127.5,-132.5,122.5,,122.5,90,B,Raw,Yes,,,,,,,,,,,Amateur Teen 18-19,1996-04-22,19,1
Artem Reznikov,M,Артем Резников,87.5,-140,-147.5,-152.5,,,,90,B,Raw,Yes,,,,,,,,,,,Amateur Open 20-23,1993-07-29,22,DQ
Vitaliy Drobizov,M,Виталий Дробизов,88.2,165,175,-185,175,,175,90,B,Raw,Yes,,,,,,,,,,,Amateur Open,1985-06-28,30,1
Artem Sergienko,M,Артем Сергиенко,88.5,165,-170,170,170,,170,90,B,Raw,Yes,,,,,,,,,,,Amateur Open,1991-02-10,24,2
Demyan Kobilinskiy,M,Демьян Кобилинский,86.4,152.5,157.5,160,160,,160,90,B,Raw,Yes,,,,,,,,,,,Amateur Open,1991-03-12,24,3
Manuk Shorluyan,M,Манук Шорлуян,88.4,152.5,155,157.5,157.5,,157.5,90,B,Raw,Yes,,,,,,,,,,,Amateur Open,1985-10-06,29,4
Vladimir Vasilev,M,Владимир Васильев,89.4,-165,-165,-165,,,,90,B,Raw,Yes,,,,,,,,,,,Amateur Open,1983-07-17,32,DQ
Nikolay Reshetov,M,Николай Решетов,88.2,-140,-140,140,140,,140,90,B,Raw,Yes,,,,,,,,,,,Amateur Masters 55-59,1959-02-23,56,1
Vasiliy Shmoylov,M,Василий Шмойлов,88.9,125,137.5,-140,137.5,,137.5,90,B,Raw,Yes,,,,,,,,,,,Amateur Masters 55-59,1960-04-28,55,2
Vladimir Novikov,M,Владимир Новиков,100,140,-150,-150,140,,140,100,B,Raw,Yes,,,,,,,,,,,Amateur Open 20-23,1995-05-07,20,1
Vasiliy Shelestov,M,Василий Шелестов,98.8,180,185,187.5,187.5,,187.5,100,B,Raw,Yes,,,,,,,,,,,Amateur Open,1975-11-11,39,1
Nikolay Bakhtin,M,Николай Бахтин,92.1,140,150,162.5,162.5,,162.5,100,B,Raw,Yes,,,,,,,,,,,Amateur Open,1989-06-04,26,2
Vladimir Yaroslavtsev,M,Владимир Ярославцев,99.7,130,140,-147.5,140,,140,100,B,Raw,Yes,,,,,,,,,,,Amateur Open,1981-11-17,33,3
Vartkes Chubaryan,M,Варткес Чубарьян,96.4,-125,-130,130,130,,130,100,B,Raw,Yes,,,,,,,,,,,Amateur Open,1986-01-07,29,4
Vladislav Shurinov,M,Владислав Шуринов,98.8,165,170,-172.5,170,,170,100,B,Raw,Yes,,,,,,,,,,,Amateur Masters 40-44,1972-09-23,43,1
Konstantin Deryagin,M,Константин Дерягин,93.1,120,125,130,130,,130,100,B,Raw,Yes,,,,,,,,,,,Amateur Masters 50-54,1962-01-08,53,1
Abdul Rashid Metrishev,M,Абдул Рашид Метришев,101.4,185,190,195,195,,195,110,B,Raw,Yes,,,,,,,,,,,Amateur Open,1974-01-10,41,1
Aleksandr Pakhuchiy,M,Александр Пахучий,108.2,180,185,-190,185,,185,110,B,Raw,Yes,,,,,,,,,,,Amateur Open,1978-04-24,37,2
Dmitriy Dey,M,Дмитрий Дей,106.4,167.5,175,180,180,,180,110,B,Raw,Yes,,,,,,,,,,,Amateur Open,1978-06-20,37,3
Aleksandr Korovin,M,Александр Коровин,104.3,165,-175,-177.5,165,,165,110,B,Raw,Yes,,,,,,,,,,,Amateur Open,1988-01-11,27,4
Abdul Rashid Metrishev,M,Абдул Рашид Метришев,101.4,185,190,195,195,,195,110,B,Raw,Yes,,,,,,,,,,,Amateur Masters 40-44,1974-01-10,41,1
Vyacheslav Lashchilin,M,Вячеслав Лащилин,119.1,175,-182.5,-182.5,175,,175,125,B,Raw,Yes,,,,,,,,,,,Amateur Teen 18-19,1997-01-04,18,1
Artur Gulyan,M,Артур Гулян,122.6,247.5,252.5,257.5,257.5,,257.5,125,B,Raw,Yes,,,,,,,,,,,Amateur Open,1982-01-23,33,1
Vitaliy Volf,M,Виталий Вольф,119.3,180,190,195,195,,195,125,B,Raw,Yes,,,,,,,,,,,Amateur Open,1984-11-20,30,2
Vitaliy Shaulskiy,M,Виталий Шаульский,124.1,-190,202.5,,202.5,,202.5,125,B,Raw,Yes,,,,,,,,,,,Amateur Masters 40-44,1974-06-15,41,1
Petr Bogomaz,M,Петр Богомаз,117.3,140,-152.5,157.5,157.5,,157.5,125,B,Raw,Yes,,,,,,,,,,,Amateur Masters 55-59,1957-05-24,58,1
Mikhail Toropov,M,Михаил Торопов,111.3,140,145,-150,145,,145,125,B,Raw,Yes,,,,,,,,,,,Amateur Masters 55-59,1960-08-09,55,2
Sofiya Kosheleva,F,София Кошелева,44.6,35,40,-50,40,,40,48,B,Single-ply,Yes,,,,,,,,,,,Amateur Teen 13-15,2001-03-21,14,1
Aleksandr Solovev,M,Александр Соловьев,81.1,-112.5,112.5,120,120,,120,82.5,B,Single-ply,Yes,,,,,,,,,,,Amateur Masters 45-49,1968-11-04,46,1
Emi Vaykhanov,M,Эми Вайханов,87,175,-180,190,190,,190,90,B,Single-ply,Yes,,,,,,,,,,,Amateur Open,1987-07-13,28,1
Nikolay Reshetov,M,Николай Решетов,88.2,-170,170,185,185,,185,90,B,Single-ply,Yes,,,,,,,,,,,Amateur Masters 55-59,1959-02-23,56,1
Svetlana Morozova,F,Світлана Морозова,56.9,-95,95,-97.5,95,,95,60,B,Multi-ply,Yes,,,,,,,,,,,Amateur Teen 13-15,1999-10-29,15,1
Svetlana Morozova,F,Світлана Морозова,56.9,-95,95,-97.5,95,,95,60,B,Multi-ply,Yes,,,,,,,,,,,Amateur Open,1999-10-29,15,1
Artem Sedov,M,Артем Седов,122.1,-260,,,,,,125,B,Multi-ply,Yes,,,,,,,,,,,Amateur Open,1979-03-18,36,DQ
Darya Polyakova,F,Дарья Полякова,43.3,,,,,,102.5,44,D,Raw,Yes,80,100,102.5,102.5,,,,,,,Amateur Open,1988-06-25,27,1
Viktoriya Isychko,F,Виктория Исычко,48,,,,,,95,48,D,Raw,Yes,90,95,-100,95,,,,,,,Amateur Open,1991-04-23,24,1
Marina Tereshkova,F,Марина Терешкова,49.7,,,,,,105,52,D,Raw,Yes,90,100,105,105,,,,,,,Amateur Open,1982-06-23,33,1
Alina Kravtsova,F,Алина Кравцова,56,,,,,,105,56,D,Raw,Yes,92.5,100,105,105,,,,,,,Amateur Teen 18-19,1997-07-17,18,1
Evgeniya Sazonova,F,Евгения Сазонова,54.8,,,,,,,56,D,Raw,Yes,-95,-95,-95,,,,,,,,Amateur Open,1989-01-21,26,DQ
Darya Alnykina,F,Дарья Алныкина,56.9,,,,,,110,60,D,Raw,Yes,100,110,-127.5,110,,,,,,,Amateur Open 20-23,1995-02-28,20,1
Anna Gaydamakina,F,Анна Гайдамакина,59.3,,,,,,137.5,60,D,Raw,Yes,137.5,-147.5,-147.5,137.5,,,,,,,Amateur Open,1978-08-23,37,1
Roman Churushkin,M,Роман Чурушкин,60,,,,,,162.5,60,D,Raw,Yes,150,162.5,-172.5,162.5,,,,,,,Amateur Teen 13-15,1999-11-04,15,1
Vladimir Kulichkov,M,Владимир Куличков,67.5,,,,,,170,67.5,D,Raw,Yes,-170,170,-190,170,,,,,,,Amateur Teen 13-15,2000-06-21,15,1
Nikita Potanin,M,Никита Потанин,67.2,,,,,,147.5,67.5,D,Raw,Yes,120,140,147.5,147.5,,,,,,,Amateur Teen 16-17,1998-02-13,17,1
Evgeniy Kovalev,M,Евгений Ковалев,63.7,,,,,,195,67.5,D,Raw,Yes,-170,180,195,195,,,,,,,Amateur Open 20-23,1992-01-20,23,1
Aleksandr Bedikyan,M,Александр Бедикян,72.6,,,,,,202.5,75,D,Raw,Yes,185,202.5,-207.5,202.5,,,,,,,Amateur Teen 16-17,1998-02-01,17,1
Nikolay Khruslov,M,Николай Хруслов,68.8,,,,,,202.5,75,D,Raw,Yes,180,-202.5,202.5,202.5,,,,,,,Amateur Teen 18-19,1996-06-05,19,1
Igor Petrenko,M,Игорь Петренко,74.7,,,,,,,75,D,Raw,Yes,-175,,,,,,,,,,Amateur Teen 18-19,1996-07-01,19,DQ
Ruslan Moskalenko,M,Руслан Москаленко,74.7,,,,,,215,75,D,Raw,Yes,185,200,215,215,,,,,,,Amateur Open,1981-01-30,34,1
Roman Korshunov,M,Роман Коршунов,81.4,,,,,,245,82.5,D,Raw,Yes,245,-260.5,,245,,,,,,,Amateur Open 20-23,1991-12-09,23,1
Roman Nikiforov,M,Роман Никифоров,80.2,,,,,,230,82.5,D,Raw,Yes,215,230,-245,230,,,,,,,Amateur Open,1986-11-27,28,1
Evgeniy Sharun,M,Евгений Шарун,78.4,,,,,,180,82.5,D,Raw,Yes,170,180,-190,180,,,,,,,Amateur Open,1983-04-16,32,2
Aleksandr Solovev,M,Александр Соловьев,82,,,,,,160,82.5,D,Raw,Yes,150,160,-170,160,,,,,,,Amateur Masters 45-49,1968-11-04,46,1
Dmitriy Gadzhiev,M,Дмитрий Гаджиев,88.7,,,,,,265,90,D,Raw,Yes,245,265.5,-270,265.5,,,,,,,Amateur Teen 18-19,1997-08-28,18,1
Dmitriy Kalinin,M,Дмитрий Калинин,88.4,,,,,,255,90,D,Raw,Yes,240,255,-260,255,,,,,,,Amateur Open,1970-02-16,45,1
Sergey Keselman,M,Сергей Кесельман,88.1,,,,,,170,90,D,Raw,Yes,150,160,170,170,,,,,,,Amateur Open,1986-06-10,29,2
Denis Katerinichev,M,Денис Катериничев,88.2,,,,,,170,90,D,Raw,Yes,150,160,170,170,,,,,,,Amateur Open,1989-03-02,26,3
Dmitriy Kalinin,M,Дмитрий Калинин,88.4,,,,,,255,90,D,Raw,Yes,240,255,-260,255,,,,,,,Amateur Masters 45-49,1970-02-16,45,1
Aleksandr Sulatskiy,M,Александр Сулацкий,91.9,,,,,,212.5,100,D,Raw,Yes,202.5,-212.5,212.5,212.5,,,,,,,Amateur Open,1985-12-13,29,1
Aleksandr Pakhuchiy,M,Александр Пахучий,108.1,,,,,,270,110,D,Raw,Yes,270,-275,,270,,,,,,,Amateur Open,1978-04-24,37,1
Evgeniy Golovnin,M,Евгений Головнин,110,,,,,,210,110,D,Raw,Yes,210,-220,-220,210,,,,,,,Amateur Open,1986-01-20,29,2
Roman Lukoshkin,M,Роман Лукошкин,111.4,,,,,,280,125,D,Raw,Yes,260,270,280,280,,,,,,,Amateur Open,1975-12-23,39,1
Sergey Tsurikov,M,Сергей Цуриков,119.6,,,,,,270,125,D,Raw,Yes,250,270,-285,270,,,,,,,Amateur Open,1987-06-10,28,2
Mikhail Rasko,M,Михаил Расько,118.5,,,,,,190,125,D,Raw,Yes,-175,175,190,190,,,,,,,Amateur Open,1987-01-09,28,3
Dmitriy Topol,M,Дмитрий Тополь,81.9,,,,,,290,82.5,D,Single-ply,Yes,290,-305,-305,290,,,,,,,Amateur Open,1981-07-31,34,1
Mariya Mokrinskaya,F,Мария Мокринская,47.6,35,-40,40,40,,215,48,SBD,Raw,Yes,90,100,-105,100,,60,70,75,75,,Amateur Teen 18-19,1995-11-19,19,1
Anastasiya Svateeva,F,Анастасия Сватеева,46.6,-40,-42.5,-42.5,,,,48,SBD,Raw,Yes,-80,,,,,-70,-70,70,70,,Amateur Open,1989-07-24,26,DQ
Alena Popova,F,Алена Попова,51.2,50,-55,57.5,57.5,,277.5,52,SBD,Raw,Yes,110,117.5,125,125,,80,90,95,95,,Amateur Open,1986-10-28,28,1
Marina Tereshkova,F,Марина Терешкова,49.6,-50,50,52.5,52.5,,220,52,SBD,Raw,Yes,90,95,100,100,,67.5,-72.5,-72.5,67.5,,Amateur Open,1982-06-23,33,2
Diana Volkova,F,Диана Волкова,56,-45,47.5,-50,47.5,,257.5,56,SBD,Raw,Yes,105,115,120,120,,80,-87.5,90,90,,Amateur Teen 16-17,1998-02-04,17,1
Yuliya Cherkesova,F,Юлия Черкесова,55.1,50,55,-57.5,55,,267.5,56,SBD,Raw,Yes,120,125,130,130,,-75,75,82.5,82.5,,Amateur Open 20-23,1994-01-10,21,1
Darya Alnykina,F,Дарья Алныкина,55.3,-50,-50,-50,,,,56,SBD,Raw,Yes,-110,,,,,-75,75,85,85,,Amateur Open 20-23,1995-02-28,20,DQ
Karina Nebyvaeva,F,Карина Небываева,55.1,45,47.5,-50,47.5,,285,56,SBD,Raw,Yes,125,135,,135,,92.5,-102.5,102.5,102.5,,Amateur Open,1984-01-06,31,1
Diana Volkova,F,Диана Волкова,56,-45,47.5,-50,47.5,,257.5,56,SBD,Raw,Yes,105,115,120,120,,80,-87.5,90,90,,Amateur Open,1998-02-04,17,2
Yuliya Kovaleva,F,Юлия Ковалева,59.5,42.5,47.5,-50,47.5,,245,60,SBD,Raw,Yes,95,107.5,110,110,,70,77.5,87.5,87.5,,Amateur Open,1983-07-10,32,1
Gulbariyat Kravtsova,F,Гульбарият Кравцова,65.7,60,67.5,-70,67.5,,327.5,67.5,SBD,Raw,Yes,120,130,-140,130,,-110,120,130,130,,Amateur Open,1989-11-20,25,1
Nina Maltseva,F,Нина Мальцева,63.4,65,-70,-70,65,,300,67.5,SBD,Raw,Yes,115,120,125,125,,-100,110,-120,110,,Amateur Open,1985-10-31,29,2
Nina Filimonova,F,Нина Филимонова,101.7,60,65,70,70,,375,90+,SBD,Raw,Yes,150,160,170,170,,130,135,,135,,Amateur Open,1984-02-14,31,1
Nikolay Petrakov,M,Николай Петраков,61.1,80,85,90,90,,430,67.5,SBD,Raw,Yes,160,180,190,190,,-140,-150,150,150,,Amateur Teen 16-17,1999-09-17,16,1
Igor Dubrovin,M,Игорь Дубровин,73.8,110,117.5,-125,117.5,,427.5,75,SBD,Raw,Yes,140,150,160,160,,130,140,150,150,,Amateur Teen 16-17,1997-10-22,17,1
Nikita Isaenko,M,Никита Исаенко,72.8,95,110,115,115,,430,75,SBD,Raw,Yes,150,175,-200,175,,-140,140,-150,140,,Amateur Teen 18-19,1996-10-03,18,1
Ivan Antonenko,M,Иван Антоненко,72.8,-152.5,-152.5,-152.5,,,,75,SBD,Raw,Yes,-190,,,,,180,-185,-187.5,180,,Amateur Open,1987-04-11,28,DQ
Zakhar Shipulin,M,Захар Шипулин,80.6,115,122.5,130,130,,510,82.5,SBD,Raw,Yes,185,200,-205,200,,180,-187.5,-187.5,180,,Amateur Teen 16-17,1998-08-11,17,1
Andrey Svateev,M,Андрей Сватеев,80.7,110,120,-122.5,120,,485,82.5,SBD,Raw,Yes,185,195,200,200,,-160,165,-170,165,,Amateur Open,1990-07-03,25,1
Sergey Sitalo,M,Сергей Ситало,81.1,120,125,-130,125,,465,82.5,SBD,Raw,Yes,175,190,-195,190,,130,140,150,150,,Amateur Open,1982-06-01,33,2
Maksim Mikheev,M,Максим Михеев,79.3,-117.5,,,,,,82.5,SBD,Raw,Yes,-175,,,,,-150,-160,-160,,,Amateur Open,1988-12-26,26,DQ
Dmitriy Gadzhiev,M,Дмитрий Гаджиев,89.2,130,140,145,145,,585,90,SBD,Raw,Yes,230,250,,250,,180,190,-210,190,,Amateur Teen 18-19,1997-08-28,18,1
Dmitriy Mordasov,M,Дмитрий Мордасов,88.5,140,145,-150,145,,530,90,SBD,Raw,Yes,180,195,200,200,,-160,170,185,185,,Amateur Open 20-23,1992-12-03,22,1
Roman Skakov,M,Роман Скаков,98.3,170,180,-190,180,,700,100,SBD,Raw,Yes,270,-290,290,290,,-230,230,-245,230,,Amateur Open,1986-06-08,29,1
Vasiliy Shelestov,M,Василий Шелестов,98.8,180,185,-190,185,,630,100,SBD,Raw,Yes,230,-245,,230,,215,-225,-225,215,,Amateur Open,1975-11-11,39,2
Vladimir Yaroslavtsev,M,Владимир Ярославцев,99.7,130,140,,140,,500,100,SBD,Raw,Yes,180,200,-220,200,,160,-175,-175,160,,Amateur Open,1981-11-17,33,3
Sergey Sokolov,M,Сергей Соколов,104.3,175,185,-190,185,,720,110,SBD,Raw,Yes,250,260,270,270,,250,260,265,265,,Amateur Open,1969-11-06,45,1
Sergey Sokolov,M,Сергей Соколов,104.3,175,185,-190,185,,720,110,SBD,Raw,Yes,250,260,270,270,,250,260,265,265,,Amateur Masters 45-49,1969-11-06,45,1
Evgeniy Sidelnikov,M,Евгений Сидельников,120.4,140,150,-160,150,,575,125,SBD,Raw,Yes,225,235,-245,235,,-190,-190,190,190,,Amateur Open,1983-03-09,32,1
Andrey Popov,M,Андрей Попов,110.1,130,135,-140,135,,505,125,SBD,Raw,Yes,170,185,200,200,,160,-170,170,170,,Amateur Masters 45-49,1970-09-04,45,1
Anton Sitnikov,M,Антон Ситников,136.7,115,-122.5,-122.5,115,,585,140,SBD,Raw,Yes,230,-245,-245,230,,220,235,240,240,,Amateur Open,1985-04-08,30,1
Ekaterina Vysotskova,F,Екатерина Высоцкова,51.7,95,,,95,,427.5,52,SBD,Single-ply,Yes,140,155,162.5,162.5,,150,170,-182.5,170,,Amateur Open,1990-06-04,25,1
Ruslan Sementsov,M,Руслан Семенцов,79.6,160,-170,-170,160,,660,82.5,SBD,Single-ply,Yes,225,235,240,240,,260,-270,-270,260,,Amateur Masters 40-44,1975-07-01,40,1
Igor Lyubaev,M,Игорь Любаев,64,130,140,-147.5,140,,610,67.5,SBD,Multi-ply,Yes,220,230,-240,230,,240,-260,-260,240,,Amateur Open,1979-04-30,36,1
Kristina Dyachenko,F,Кристина Дьяченко,52,52.5,57.5,-60,57.5,,57.5,52,B,Raw,No,,,,,,,,,,,Pro Open 20-23,1994-02-16,21,1
Natalya Goncharova,F,Наталья Гончарова,67.1,100,105,-110,105,,105,67.5,B,Raw,No,,,,,,,,,,,Pro Masters 50-54,1964-09-06,51,1
Denis Kuimov,M,Денис Куимов,66.5,140,150,-152.5,150,,150,67.5,B,Raw,No,,,,,,,,,,,Pro Open 20-23,1991-10-10,23,1
Andrey Nozdrev,M,Андрей Ноздрев,73.9,100,105,-112.5,105,,105,75,B,Raw,No,,,,,,,,,,,Pro Open,1983-02-26,32,1
Vadim Bortsov,M,Вадим Борцов,71.2,-170,-170,-170,,,,75,B,Raw,No,,,,,,,,,,,Pro Open,1990-11-17,24,DQ
Gleb Chugunov,M,Глеб Чугунов,79.7,-120,-130,130,130,,130,82.5,B,Raw,No,,,,,,,,,,,Pro Teen 16-17,1997-10-09,17,1
Vladislav Andrienko,M,Владислав Андриенко,81.4,150,157,160,160,,160,82.5,B,Raw,No,,,,,,,,,,,Pro Open 20-23,1993-07-31,22,1
Vladislav Trukhin,M,Владислав Трухин,81.2,132.5,-140,-147.5,132.5,,132.5,82.5,B,Raw,No,,,,,,,,,,,Pro Open 20-23,1994-10-24,20,2
Grigoriy Isakhanyan,M,Григорий Исаханян,80.3,130,-137.5,-140,130,,130,82.5,B,Raw,No,,,,,,,,,,,Pro Open,1991-06-20,24,1
Oleg Leukov,M,Олег Леуков,87.6,165,-172.5,-172.5,165,,165,90,B,Raw,No,,,,,,,,,,,Pro Open 20-23,1993-05-14,22,1
Mikhail Kartashev,M,Михаил Карташев,89.7,150,157.5,-160,157.5,,157.5,90,B,Raw,No,,,,,,,,,,,Pro Open 20-23,1993-04-15,22,2
Vadim Latifov,M,Вадим Латифов,88.3,180,190,-195,190,,190,90,B,Raw,No,,,,,,,,,,,Pro Open,1989-12-26,25,1
Eduard Petryuk,M,Эдуард Петрюк,87.1,185,-190,-190,185,,185,90,B,Raw,No,,,,,,,,,,,Pro Open,1976-04-11,39,2
Ilya Pokhodov,M,Илья Походов,97,-170,180,190,190,,190,100,B,Raw,No,,,,,,,,,,,Pro Open 20-23,1994-08-03,21,1
Roman Gavrilenko,M,Роман Гавриленко,98.1,150,157.5,-165,157.5,,157.5,100,B,Raw,No,,,,,,,,,,,Pro Open 20-23,1993-06-24,22,2
Dmitriy Dyakonov,M,Дмитрий Дьяконов,98.6,215,225,-235,225,,225,100,B,Raw,No,,,,,,,,,,,Pro Open,1988-07-07,27,1
Andrey Filippov,M,Андрей Филиппов,103.1,-200,200,-212.5,200,,200,110,B,Raw,No,,,,,,,,,,,Pro Open 20-23,1991-11-08,23,1
Artem Grechanov,M,Артем Гречанов,108.7,190,200,-212.5,200,,200,110,B,Raw,No,,,,,,,,,,,Pro Open 20-23,1991-12-20,23,2
Artem Artemenko,M,Артем Артеменко,103.3,185,192.5,-202.5,192.5,,192.5,110,B,Raw,No,,,,,,,,,,,Pro Open,1989-03-17,26,1
Denis Nestor,M,Денис Нестор,110,185,192.5,-202.5,192.5,,192.5,110,B,Raw,No,,,,,,,,,,,Pro Open,1981-06-23,34,2
Nikolay Mikhalenov,M,Николай Михаленов,105.4,180,187.5,-195,187.5,,187.5,110,B,Raw,No,,,,,,,,,,,Pro Open,1980-07-27,35,3
Tagir Gudzhaev,M,Тагир Гуджаев,116.4,-235,235,245,245,,245,125,B,Raw,No,,,,,,,,,,,Pro Open,1984-06-17,31,1
Denis Glotov,M,Денис Глотов,117.2,170,185,187.5,187.5,,187.5,125,B,Raw,No,,,,,,,,,,,Pro Open,1975-05-19,40,2
Denis Glotov,M,Денис Глотов,117.2,170,185,187.5,187.5,,187.5,125,B,Raw,No,,,,,,,,,,,Pro Masters 40-44,1975-05-19,40,1
Liliya Linnik,F,Лилия Линник,58.6,-90,-90,-90,,,,60,B,Single-ply,No,,,,,,,,,,,Pro Teen 18-19,1995-11-29,19,DQ
Inga Ermak,F,Инга Ермак,65.3,87.5,-97.5,-97.5,87.5,,87.5,67.5,B,Single-ply,No,,,,,,,,,,,Pro Open,1982-03-01,33,1
Sergey Bakanov,M,Сергей Баканов,51.4,-132.5,132.5,-137.5,132.5,,132.5,52,B,Single-ply,No,,,,,,,,,,,Pro Open,1985-10-25,29,1
Kirill Fedotov,M,Кирилл Федотов,68.6,80,85,90,90,95,90,75,B,Single-ply,No,,,,,,,,,,,Pro Teen 13-15,2001-06-10,14,1
Vadim Evtushenko,M,Вадим Евтушенко,108.5,250,270,-290,270,,270,110,B,Single-ply,No,,,,,,,,,,,Pro Open,1974-09-18,41,1
Andrey Makeev,M,Андрей Макеев,102.6,250,260,-270,260,,260,110,B,Single-ply,No,,,,,,,,,,,Pro Open,1985-12-28,29,2
Aleksey Isaev,M,Алексей Исаев,107.7,220,240,-262.5,240,,240,110,B,Single-ply,No,,,,,,,,,,,Pro Open,1975-06-20,40,3
Vadim Evtushenko,M,Вадим Евтушенко,108.5,250,270,-290,270,,270,110,B,Single-ply,No,,,,,,,,,,,Pro Masters 40-44,1974-09-18,41,1
Aleksey Isaev,M,Алексей Исаев,107.7,220,240,-262.5,240,,240,110,B,Single-ply,No,,,,,,,,,,,Pro Masters 40-44,1975-06-20,40,2
Nikolay Glazev,M,Николай Глазьев,116,220,230,-240,230,,230,125,B,Single-ply,No,,,,,,,,,,,Pro Open,1983-10-29,31,1
Aleksey Kostenko,M,Алексей Костенко,123.9,-220,220,-240,220,,220,125,B,Single-ply,No,,,,,,,,,,,Pro Open,1982-10-15,32,2
Nikolay Fedotov,M,Николай Федотов,71.9,-140,-150,-162.5,,,,75,B,Multi-ply,No,,,,,,,,,,,Pro Open,1988-01-21,27,DQ
Aleksandr Zavyalov,M,Александр Завьялов,109,-225,-225,-225,,,,110,B,Multi-ply,No,,,,,,,,,,,Pro Open,1979-09-22,36,DQ
Evgeniy Chugunov,M,Евгений Чугунов,121.6,290,-300,-300,290,,290,125,B,Multi-ply,No,,,,,,,,,,,Pro Open,1983-04-24,32,1
Mikhail Mikao,M,Михаил Микао,120.5,-240,-245,245,245,,245,125,B,Multi-ply,No,,,,,,,,,,,Pro Open,1985-07-29,30,2
Aleksey Tarasov,M,Алексей Тарасов,130.6,280,-300,300,300,,300,140,B,Multi-ply,No,,,,,,,,,,,Pro Open,1976-03-21,39,1
Mikhail Reutov,M,Михаил Реутов,127.5,-240,240,-270,240,,240,140,B,Multi-ply,No,,,,,,,,,,,Pro Masters 40-44,1972-12-10,42,1
Elena Yakovleva,F,Елена Яковлева,66.6,,,,,,100,67.5,D,Raw,No,80,90,100,100,,,,,,,Pro Open,1983-12-04,31,1
Irina Vasileva,F,Ирина Васильева,68.6,,,,,,115,75,D,Raw,No,100,115,-130,115,,,,,,,Pro Open,1988-03-27,27,1
Anna Rodnina,F,Анна Роднина,78.2,,,,,,140,82.5,D,Raw,No,140,-145,,140,,,,,,,Pro Open,1984-04-28,31,1
Artyom Ivanisov,M,Артём Иванисов,74.3,,,,,,215,75,D,Raw,No,205,215,-225,215,,,,,,,Pro Open 20-23,1995-01-13,20,1
Daniil Zherdev,M,Даниил Жердев,81.2,,,,,,165,82.5,D,Raw,No,165,-185,-185,165,,,,,,,Pro Teen 16-17,1999-07-27,16,1
Aleksandr Shmakov,M,Александр Шмаков,82.5,,,,,,180,82.5,D,Raw,No,180,-200,-205,180,,,,,,,Pro Open 20-23,1994-10-04,20,1
Aleksey Kotov,M,Алексей Котов,81,,,,,,220,82.5,D,Raw,No,200,210,220,220,,,,,,,Pro Open,1987-05-16,28,1
Sergey Afanasev,M,Сергей Афанасьев,81.7,,,,,,220,82.5,D,Raw,No,-220,220,-230,220,,,,,,,Pro Open,1990-05-02,25,2
Valeriy Stoyanov,M,Валерий Стоянов,81,,,,,,190,82.5,D,Raw,No,190,-207.5,-207.5,190,,,,,,,Pro Masters 55-59,1957-11-25,57,1
Aleksandr Neshin,M,Александр Нешин,89.7,,,,,,215,90,D,Raw,No,215,-220,,215,,,,,,,Pro Open,1987-01-29,28,1
Andrey Pyatygin,M,Андрей Пятыгин,97.6,,,,,,240,100,D,Raw,No,210,220,240,240,,,,,,,Pro Open,1986-04-14,29,1
Aleksandr Ogulchanskiy,M,Александр Огульчанский,97.5,,,,,,215,100,D,Raw,No,-215,-215,215,215,,,,,,,Pro Open,1986-05-17,29,2
Nikolay Kolyuchkin,M,Николай Колючкин,95.7,,,,,,220,100,D,Raw,No,180,200,220,220,,,,,,,Pro Masters 45-49,1967-05-20,48,1
Ruslan Ivankin,M,Руслан Иванькин,109.5,,,,,,260,110,D,Raw,No,227.5,247.5,260,260,,,,,,,Pro Open 20-23,1992-11-13,22,1
Aleksey Kiselev,M,Алексей Киселев,107,,,,,,265,110,D,Raw,No,265,-275,-280,265,,,,,,,Pro Open,1974-04-27,41,1
Roman Rodnin,M,Роман Роднин,101.1,,,,,,260,110,D,Raw,No,250,-255,260,260,,,,,,,Pro Open,1975-10-07,39,2
Aleksey Kiselev,M,Алексей Киселев,107,,,,,,265,110,D,Raw,No,265,-275,-280,265,,,,,,,Pro Masters 40-44,1974-04-27,41,1
Amiran Karpov,M,Амиран Карпов,100.8,,,,,,180,110,D,Raw,No,160,170,180,180,,,,,,,Pro Masters 45-49,1968-06-18,47,1
Artur Duruev,M,Артур Дуруев,124.9,,,,,,295,125,D,Raw,No,280,295,-310,295,,,,,,,Pro Open 20-23,1994-07-08,21,1
Vladislav Alhazov,M,Влад Алхазов,159.5,,,,,,385,140+,D,Raw,No,-365,-385,385,385,,,,,,,Pro Open,1978-04-19,37,1
Roman Khaustov,M,Роман Хаустов,82.5,,,,,,305,82.5,D,Single-ply,No,275,295,305,305,,,,,,,Pro Open,1983-08-24,32,1
Denis Nestor,M,Денис Нестор,110,,,,,,275,110,D,Single-ply,No,275,-290,,275,,,,,,,Pro Open,1981-06-23,34,1
Alexander Karpenko,M,Александр Карпенко,75,155,162.5,-167.5,162.5,,700,75,SBD,Raw,No,280,295,-310,295,,235,-242.5,242.5,242.5,-250,Pro Open,1992-04-25,23,1
Konstantin Sobolev,M,Константин Соболев,78.3,140,147.5,152.5,152.5,,557.5,82.5,SBD,Raw,No,200,-210,212.5,212.5,,-182.5,185,192.5,192.5,,Pro Open,1980-04-04,35,1
Yuriy Belenkiy,M,Юрий Беленький,82,150,-155,155,155,,535,82.5,SBD,Raw,No,180,195,-217.5,195,,170,180,185,185,,Pro Open,1988-03-23,27,2
Nikita Pokazanov,M,Никита Показанов,85.8,170,180,190,190,,630,90,SBD,Raw,No,210,235,-252.5,235,,-170,185,205,205,,Pro Teen 16-17,1997-11-14,17,1
Andrey Malyuzhenko,M,Андрей Малюженко,89.2,145,-150,150,150,,647.5,90,SBD,Raw,No,255,267.5,-271,267.5,,220,230,-236,230,,Pro Teen 18-19,1996-10-15,18,1
Andrey Gromov,M,Андрей Громов,89.1,147.5,-152.5,-155,147.5,,627.5,90,SBD,Raw,No,240,250,-270,250,,230,-235,-235,230,,Pro Teen 18-19,1996-02-24,19,2
Ivan Pipenko,M,Иван Пипенко,89.5,160,170,172.5,172.5,,662.5,90,SBD,Raw,No,250,270,-280,270,,210,215,220,220,,Pro Open,1990-09-29,,1
Aleksandr Neshin,M,Александр Нешин,88.2,-135,,,,,,90,SBD,Raw,No,-230,,,,,-180,-180,-180,,,Pro Open,1987-01-29,28,DQ
Ramazan Shikhgasanov,M,Рамазан Шихгасанов,97.2,-190,-190,190,190,,700,100,SBD,Raw,No,230,250,270,270,,-240,240,-250,240,,Pro Open 20-23,1995-02-23,20,1
Aleksandr Andreev,M,Александр Андреев,91.8,140,145,-150,145,,,100,SBD,Raw,No,-250,-260,-260,,,190,195,200,200,,Pro Open 20-23,1993-10-27,21,DQ
Ramazan Shikhgasanov,M,Рамазан Шихгасанов,97.2,-190,-190,190,190,,700,100,SBD,Raw,No,230,250,270,270,,-240,240,-250,240,,Pro Open,1995-02-23,20,1
Aleksandr Isaev,M,Александр Исаев,98.1,140,147.5,152.5,152.5,,642.5,100,SBD,Raw,No,250,270,-280,270,,220,-230,-230,220,,Pro Open,1990-10-26,24,2
Aslambek Abaev,M,Асламбек Абаев,95.3,195,200,,200,,745,100,SBD,Raw,No,260,270,277.5,277.5,,260,267.5,,267.5,,Pro Masters 55-59,1959-06-28,56,1
Andrey Chernenko,M,Андрей Черненко,109.4,200,-210,210,210,,797.5,110,SBD,Raw,No,-300,300,-320,300,,280,287.5,-292.5,287.5,,Pro Open 20-23,1993-04-12,22,1
Egor Mizhevskiy,M,Егор Мижевский,109.6,160,170,175,175,,715,110,SBD,Raw,No,260,275,280,280,,-250,260,-270,260,,Pro Open,1990-05-14,25,1
Aleksandr Komkov,M,Александр Комков,116,190,-195,-195,190,,740,125,SBD,Raw,No,280,-290,-290,280,,260,270,-280,270,,Pro Open,1983-11-26,31,1
Evgeniy Popov,M,Евгений Попов,110.1,175,-180,-180,175,,655,125,SBD,Raw,No,260,-272.5,-272.5,260,,210,220,-225,220,,Pro Open,1991-05-15,24,2
Andrey Vyalkov,M,Андрей Вялков,70.4,-100,115,-127.5,115,,455,75,SBD,Single-ply,No,140,-160,170,170,,-160,-160,170,170,,Pro Teen 18-19,1997-06-20,18,1
Oleg Son,M,Олег Сон,74.8,145,152.5,-160,152.5,,,75,SBD,Single-ply,No,-230,-230,-230,,,270,-282.5,-285,270,,Pro Open,1991-05-22,24,DQ
Roman Khaustov,M,Роман Хаустов,82.3,-180,,,,,,82.5,SBD,Single-ply,No,-290,,,,,-350,-350,-350,,,Pro Open,1983-08-24,32,DQ
Anatoliy Brezvin,M,Анатолий Брезвин,88.9,205,-215,215,215,,785,90,SBD,Single-ply,No,250,265,-280,265,,290,305,-315,305,,Pro Open 20-23,1992-10-17,22,1
Sergey Mamatkov,M,Сергей Маматков,88.3,160,170,180,180,,720,90,SBD,Single-ply,No,237.5,250,260,260,,270,280,-290,280,,Pro Open 20-23,1995-09-22,20,2
Kirill Tarasov,M,Кирилл Тарасов,89.9,170,187.5,-200,187.5,,682.5,90,SBD,Single-ply,No,220,235,-250,235,,260,-280,-280,260,,Pro Open 20-23,1993-04-13,22,3
Anatoliy Brezvin,M,Анатолий Брезвин,88.9,205,-215,215,215,,785,90,SBD,Single-ply,No,250,265,-280,265,,290,305,-315,305,,Pro Open,1992-10-17,22,1
Nikolay Gnatyuk,M,Николай Гнатюк,99,240,-250,250,250,,945,100,SBD,Single-ply,No,310,325,-335.5,325,,340,355,370,370,,Pro Open,1987-09-03,28,1
Pavel Marakhovskiy,M,Павел Мараховский,108.1,-190,190,205,205,,765,110,SBD,Single-ply,No,-270,270,-300,270,,-290,290,-305,290,,Pro Open 20-23,1994-09-27,,1
Vasiliy Taranov,M,Василий Таранов,110,200,210,215,215,,775,110,SBD,Single-ply,No,-260,260,270,270,,280,290,-300,290,,Pro Open,1980-11-11,34,1
Pavel Drozhko,M,Павел Дрожко,115.3,160,-165,-165,160,,670,125,SBD,Single-ply,No,-240,240,250,250,,240,250,260,260,,Pro Open,1982-07-02,33,1
Vladimir Zhabin,M,Владимир Жабин,89.7,-230,230,240,240,,935,90,SBD,Multi-ply,No,330,350,-365,350,,345,-360,-360,345,,Pro Open,1980-06-27,35,1
