Sex,Equipment,Division,WeightClassKg,Name,BodyweightKg,Best3SquatKg,Best3BenchKg,Best3DeadliftKg,Deadlift4Kg,TotalKg,Event,Place
F,Raw,Amateur Teen 18-19,56,Yelena Espinoza,55.79,90.72,56.7,142.88,,290.3,SBD,1
F,Raw,Pro Open,60,Carolyn Bakker,59.96,115.67,70.31,161.03,,347,SBD,1
F,Raw,Military Amateur Open,67.5,Brandi Washington,66.13,104.33,68.04,136.08,,308.44,SBD,1
F,Wraps,Amateur Open,67.5,Christina K Roper,65.32,90.72,65.77,115.67,,272.16,SBD,1
F,Raw,Amateur Juniors 20-23,75,Onyinye Nwokorie,70.85,81.65,47.63,129.27,,258.55,SBD,1
F,Raw,Amateur Open,75,Marie Nelson,70.31,86.18,43.09,124.74,,254.01,SBD,1
F,Wraps,Amateur Open,75,Diana Bramble,72.57,83.91,47.63,117.93,,249.48,SBD,1
F,Wraps,Amateur Juniors 20-23,82.5,Kendall Kiernan,78.47,147.42,58.97,147.42,,353.8,SBD,1
F,Wraps,Amateur Masters 45-49,110+,Susan Knause,112.94,102.06,74.84,149.69,,326.59,SBD,1
M,Wraps,Amateur Juniors 20-23,67.5,Anthony Celozzi,66.68,210.92,127.01,215.46,,553.38,SBD,1
M,Multi-ply,Amateur Masters 45-49,75,Tim Kingure,73.39,231.33,102.06,206.38,,539.77,SBD,1
M,Raw,Amateur Juniors 20-23,75,Thomas Thibault,74.21,183.7,124.74,215.46,,523.9,SBD,1
M,Raw,Amateur Open,75,Michael T DePascale,74.66,165.56,136.08,235.87,,537.51,SBD,2
M,Raw,Amateur Open,75,Lou Forrester,74.21,176.9,136.08,215.46,,528.44,SBD,3
M,Raw,Amateur Open,75,Jarett Menzel,74.93,199.58,122.47,274.42,,596.47,SBD,1
M,Wraps,Amateur Juniors 20-23,75,Tuan Tran,73.21,206.38,136.08,226.8,,569.26,SBD,1
M,Wraps,Military Amateur Open,75,Joseph Entrekin,71.12,115.67,97.52,127.01,,340.19,SBD,1
M,Wraps,Military Pro Open,75,Matthew Reep,73.94,226.8,179.17,235.87,,641.83,SBD,1
M,Wraps,Pro Masters 40-44,75,Matthew Reep,73.94,226.8,179.17,235.87,,641.83,SBD,1
M,Wraps,Amateur Submasters 33-39,75,Eric Anderson,72.94,181.44,136.08,163.29,,480.81,SBD,1
M,Wraps,Amateur Teen 18-19,75,Francis Ferrara,74.21,156.49,106.59,190.51,,453.59,SBD,1
M,Raw,Amateur Juniors 20-23,82.5,John Zeitz,81.1,215.46,136.08,219.99,,571.53,SBD,1
M,Raw,Amateur Open,82.5,Ryan Wood,81.92,161.03,,,,,SBD,DQ
M,Raw,Amateur Open,82.5,Matt Summers,81.28,163.29,115.67,217.72,,496.68,SBD,1
M,Raw,Military Amateur Open,82.5,Joshua Hannum,81.28,179.17,133.81,238.14,,551.11,SBD,1
M,Wraps,Amateur Juniors 20-23,82.5,Keith Bratley,81.65,215.46,147.42,249.48,,612.35,SBD,1
M,Wraps,Amateur Masters 45-49,82.5,Ron Moebuis,82.37,192.78,124.74,176.9,,494.42,SBD,1
M,Wraps,Amateur Open,82.5,Mike Shaffer,80.29,192.78,136.08,260.82,,589.67,SBD,1
M,Wraps,Amateur Open,82.5,Jeffrey R. Calabrese,79.02,176.9,102.06,195.04,,474,SBD,3
M,Wraps,Amateur Open,82.5,Luke Koval,81.92,170.1,115.67,215.46,,501.22,SBD,2
M,Wraps,Military Amateur Open,82.5,James Nunnery,80.47,165.56,129.27,174.63,,469.47,SBD,1
M,Wraps,Pro Open,82.5,Justin Byrd,80.29,188.24,142.88,233.6,,564.72,SBD,1
M,Raw,Amateur Open,82.5,Josh Stoll,81.19,,145.15,240.4,,385.55,BD,1
F,Raw,Amateur Masters 50-54,110,Michelle Reeves,104.05,,52.16,97.52,,149.69,BD,1
F,Raw,Amateur Submasters 33-39,67.5,Brandi Washington,66.13,,68.04,,,68.04,B,1
F,Raw,Amateur Submasters 33-39,67.5,Brandi Washington,66.13,,,136.08,,136.08,D,1
F,Raw,Amateur Juniors 20-23,56,Emma Duke,55.79,,,127.01,,127.01,D,1
M,Multi-ply,Amateur Masters 40-44,90,Joe Vargo,89.09,213.19,138.35,199.58,,551.11,SBD,1
M,Raw,Amateur Juniors 20-23,90,Abiy Ababu,87.36,165.56,158.76,235.87,,560.19,SBD,1
M,Raw,Amateur Open,90,Bryan Dodge,86.55,158.76,117.93,181.44,,458.13,SBD,2
M,Raw,Amateur Open,90,Michael Lampart,83.01,215.46,131.54,292.57,,639.57,SBD,1
M,Raw,Military Amateur Open,90,Ulysses Winn,88.45,183.7,136.08,206.38,,526.17,SBD,1
M,Raw,Pro Open,90,Johnny Do,89.9,283.5,213.19,294.84,,791.52,SBD,1
M,Wraps,Amateur Open,90,Lee Brill,89.54,165.56,138.35,142.88,,446.79,SBD,3
M,Wraps,Amateur Open,90,Jared Wood,88.81,229.06,161.03,244.94,,635.03,SBD,2
M,Wraps,Amateur Open,90,Curtis Miller #1,89.99,244.94,136.08,285.76,,666.78,SBD,1
M,Wraps,Military Amateur Open,90,John Rogers,89.99,188.24,147.42,226.8,,562.45,SBD,2
M,Wraps,Military Amateur Open,90,Joshua Berthold,87,192.78,140.61,249.48,,582.87,SBD,1
M,Raw,Amateur Open,100,Paul Gurzo,98.61,167.83,145.15,235.87,,548.85,SBD,1
M,Raw,Military Amateur Open,100,Preston Love,93.98,204.12,149.69,249.48,,603.28,SBD,1
M,Raw,Amateur Submasters 33-39,100,Paul Gurzo,98.61,167.83,145.15,235.87,,548.85,SBD,1
M,Wraps,Amateur Juniors 20-23,100,Sean Blackwell,94.53,215.46,136.08,229.06,,580.6,SBD,1
M,Wraps,Amateur Open,100,Andrew Hur,94.98,192.78,149.69,249.48,,591.94,SBD,1
M,Single-ply,Amateur Open,100,David Marino,97.34,281.23,163.29,260.82,,705.34,SBD,1
M,Single-ply,Amateur Masters 40-44,100,David Marino,97.34,281.23,163.29,260.82,,705.34,SBD,1
M,Multi-ply,Amateur Open,110,Matthew MacArthur,105.23,317.51,204.12,249.48,,771.11,SBD,2
M,Multi-ply,Amateur Open,110,Nick Graves,104.33,351.53,222.26,272.16,,845.95,SBD,1
M,Raw,Amateur Open,110,Brannon Evans,103.78,210.92,142.88,229.06,,582.87,SBD,1
M,Raw,Amateur Teen 16-17,110,Brik Sublett,107.77,213.19,140.61,249.48,,603.28,SBD,1
M,Wraps,Amateur Juniors 20-23,110,Jason Hauzel,104.96,206.38,142.88,238.14,,587.4,SBD,1
M,Wraps,Amateur Open,110,Stewart Hamilton,104.87,226.8,136.08,258.55,,621.42,SBD,2
M,Wraps,Amateur Open,110,Nick Dailey,107.14,265.35,197.31,265.35,,728.02,SBD,1
M,Wraps,Military Amateur Open,110,Oscar Aguilera,108.59,229.06,145.15,238.14,,612.35,SBD,1
M,Wraps,Military Pro Open,110,Joshua Horne,104.87,229.06,179.17,249.48,,657.71,SBD,1
M,Wraps,Pro Open,110,Josh Mayer,102.6,204.12,145.15,240.4,,589.67,SBD,1
M,Raw,Amateur Juniors 20-23,125,Clifford Henderson,124.74,170.1,115.67,208.65,,494.42,SBD,1
M,Wraps,Amateur Juniors 20-23,125,Xavier Whittaker,113.4,254.01,158.76,283.5,,696.26,SBD,1
M,Wraps,Amateur Open,125,Jason Harang,117.57,265.35,161.03,258.55,,684.92,SBD,1
M,Wraps,Amateur Submasters 33-39,125,Jason Harang,117.57,265.35,161.03,258.55,,684.92,SBD,1
M,Single-ply,Military Pro Open,125,Roger Johnson,120.02,288.03,181.44,256.28,,725.75,SBD,1
M,Wraps,Military Amateur Open,140,Ryan Cohen,130.36,229.06,149.69,249.48,,628.23,SBD,1
M,Multi-ply,Pro Open,140+,Rodney Woodward Jr,147.69,390.09,276.69,294.84,,961.62,SBD,1
M,Raw,Amateur Open,90,Joshua McFarlane,89.27,,185.97,,,185.97,B,1
M,Raw,Military Amateur Open,100,Chris Rege,98.88,,170.1,,,170.1,B,1
M,Raw,Pro Open,110,David Balback,108.41,,210.92,,,210.92,B,1
M,Raw,Amateur Masters,110,Robert O'Donnell,109.04,,145.15,,,145.15,B,1
M,Raw,Military Amateur Open,90,Jeremy Robinette,89.99,,154.22,240.4,,394.63,BD,1
M,Raw,Amateur Open,100,Andrew Hur,94.98,,149.69,249.48,,399.16,BD,1
M,Single-ply,Amateur Masters 60-64,110,Randy Kevin Jopp Sr,101.79,,165.56,226.8,233.6,392.36,BD,1
M,Raw,Amateur Masters 45-49,125,Glenn Finley,121.11,,142.88,238.14,244.94,381.02,BD,1
