Division,WeightClassKg,Place,Name,Team,BodyweightKg,Best3SquatKg,Best3BenchKg,Best3DeadliftKg,TotalKg,Equipment,Event,Sex
Boys,52,1,Dominic Puch,Frisco Centennial,51.71,102.06,63.5,113.4,278.96,Single-ply,SBD,M
Boys,52,2,Brandon Balam,Frisco Heritage,50.71,79.38,45.36,108.86,233.6,Single-ply,SBD,M
Boys,52,3,Jared Banda,Frisco Reedy,49.58,83.91,43.09,104.33,231.33,Single-ply,SBD,M
Boys,52,4,Aiden Guynes,Frisco Wakeland,47.36,77.11,43.09,108.86,229.06,Single-ply,SBD,M
Boys,56,1,Ricky Lopez,Frisco Centennial,54.61,163.29,102.06,190.51,455.86,Single-ply,SBD,M
Boys,56,2,Jameson Donahue,Frisco Reedy,55.7,129.27,72.57,129.27,331.12,Single-ply,SBD,M
Boys,56,3,Will Best,Frisco Wakeland,55.52,122.47,61.23,124.74,308.44,Single-ply,SBD,M
Boys,56,4,Bradley Ricks,Frisco Liberty,55.75,95.25,61.23,122.47,278.96,Single-ply,SBD,M
Boys,56,5,John Hammer,Frisco Centennial,55.2,102.06,47.63,108.86,258.55,Single-ply,SBD,M
Boys,60,1,Nate Lunsford,Frisco Wakeland,56.06,185.97,106.59,185.97,478.54,Single-ply,SBD,M
Boys,60,2,Gavin Carroll,Frisco Wakeland,59.69,161.03,83.91,161.03,405.97,Single-ply,SBD,M
Boys,60,3,Henry Mortenson,Frisco Liberty,59.65,165.56,86.18,151.95,403.7,Single-ply,SBD,M
Boys,60,4,Nathan Yang,Frisco Heritage,59.24,147.42,90.72,145.15,383.29,Single-ply,SBD,M
Boys,60,5,Blake Battle,Frisco Liberty,58.92,142.88,86.18,151.95,381.02,Single-ply,SBD,M
Boys,60,6,Matt Read,Frisco Heritage,59.28,122.47,74.84,158.76,356.07,Single-ply,SBD,M
Boys,67.5,1,Dillon Mironti,Frisco Liberty,66.09,176.9,120.2,172.37,469.47,Single-ply,SBD,M
Boys,67.5,2,Johnny Wilkins,Frisco Reedy,61.6,133.81,92.99,158.76,385.55,Single-ply,SBD,M
Boys,67.5,3,Dylan Cadwallader,Frisco Wakeland,66.63,142.88,79.38,161.03,383.29,Single-ply,SBD,M
Boys,67.5,4,Will Gerrish,Frisco,67.09,138.35,102.06,142.88,383.29,Single-ply,SBD,M
Boys,67.5,5,Corey Norman,Frisco Heritage,67.04,127.01,77.11,158.76,362.87,Single-ply,SBD,M
Boys,67.5,6,Edward Zeng,Frisco Liberty,61.78,145.15,61.23,154.22,360.61,Single-ply,SBD,M
Boys,67.5,7,Josh Foster,Frisco Lone Star,66.95,158.76,79.38,,238.14,Single-ply,SB,M
Boys,67.5,8,Colin Peterson,Frisco Lone Star,66.45,115.67,81.65,,197.31,Single-ply,SB,M
Boys,67.5,DQ,Travis Torres,Frisco,65.68,,,,,Single-ply,SBD,M
Boys,75,1,George Kennard,Frisco Wakeland,74.62,224.53,140.61,235.87,601.01,Single-ply,SBD,M
Boys,75,2,Justin Gipson,Frisco Reedy,74.75,231.33,129.27,195.04,555.65,Single-ply,SBD,M
Boys,75,3,Danny Marroquin,Frisco Liberty,73.98,167.83,117.93,158.76,444.52,Single-ply,SBD,M
Boys,75,4,Robert Striegel,Frisco Wakeland,73.57,165.56,95.25,172.37,433.18,Single-ply,SBD,M
Boys,75,5,Connor Smith,Frisco Centennial,72.85,163.29,113.4,136.08,412.77,Single-ply,SBD,M
Boys,75,6,Conner Wolfe,Frisco Heritage,70.9,136.08,86.18,154.22,376.48,Single-ply,SBD,M
Boys,75,7,Jordan Etienne,Frisco Lone Star,68.9,124.74,79.38,149.69,353.8,Single-ply,SBD,M
Boys,82.5,1,Isaac Williams,Frisco Centennial,81.96,233.6,108.86,188.24,530.7,Single-ply,SBD,M
Boys,82.5,2,Noah Salcido,Frisco Centennial,80.2,185.97,147.42,192.78,526.17,Single-ply,SBD,M
Boys,82.5,3,Brendan Foster,Frisco,79.51,185.97,124.74,201.85,512.56,Single-ply,SBD,M
Boys,82.5,4,Bryson Jenkins,Frisco Centennial,79.56,190.51,108.86,195.04,494.42,Single-ply,SBD,M
Boys,82.5,5,Trevor Heavner,Frisco Reedy,76.97,188.24,106.59,197.31,492.15,Single-ply,SBD,M
Boys,82.5,6,Jonathan Vaquera,Frisco Wakeland,81.69,174.63,104.33,185.97,464.93,Single-ply,SBD,M
Boys,82.5,7,Jarred Brown,Frisco Heritage,82.1,158.76,88.45,172.37,419.57,Single-ply,SBD,M
Boys,82.5,8,Ethan Harrison,Frisco Lone Star,78.52,158.76,88.45,145.15,392.36,Single-ply,SBD,M
Boys,82.5,9,Tommy Warkins,Frisco Heritage,77.2,120.2,83.91,163.29,367.41,Single-ply,SBD,M
Boys,82.5,10,Jalen Ford,Frisco Lone Star,81.33,145.15,79.38,136.08,360.61,Single-ply,SBD,M
Boys,82.5,11,Jaxon Holloman,Frisco Heritage,81.69,149.69,,,149.69,Single-ply,S,M
Boys,82.5,DQ,Conner Young,Frisco Lone Star,77.7,,,,,Single-ply,SBD,M
Boys,82.5,DQ,William Penny,Frisco Liberty,82.1,,,,,Single-ply,SBD,M
Boys,90,1,Vance Hooper,Frisco Heritage,86.23,217.72,127.01,217.72,562.45,Single-ply,SBD,M
Boys,90,2,Dexter Green,Frisco Liberty,87.09,206.38,138.35,215.46,560.19,Single-ply,SBD,M
Boys,90,3,Jeff Hemenway,Frisco Reedy,87.09,210.92,136.08,195.04,542.04,Single-ply,SBD,M
Boys,90,4,Jacob Veres,Frisco Wakeland,88.59,204.12,131.54,195.04,530.7,Single-ply,SBD,M
Boys,90,5,Filo Kolta,Frisco,88.31,195.04,111.13,181.44,487.61,Single-ply,SBD,M
Boys,90,6,Eric Hawkins,Frisco Lone Star,89.45,170.1,122.47,183.7,476.27,Single-ply,SBD,M
Boys,90,7,Kamari Wilkerson,Frisco,88.54,181.44,92.99,172.37,446.79,Single-ply,SBD,M
Boys,90,8,Garrett Brooks,Frisco,89.31,149.69,117.93,170.1,437.72,Single-ply,SBD,M
Boys,90,9,Cody Selby,Frisco,88.09,117.93,77.11,161.03,356.07,Single-ply,SBD,M
Boys,90,DQ,Trevor Jones,Frisco Reedy,89.81,,,,,Single-ply,SBD,M
Boys,90,DQ,Cameron Harris,Frisco Reedy,88.95,,,,,Single-ply,SBD,M
Boys,100,1,Ryan Lara,Frisco Independence,91.53,249.48,142.88,226.8,619.15,Single-ply,SBD,M
Boys,100,2,Ferguson Ohabor,Frisco Centennial,94.26,206.38,102.06,229.06,537.51,Single-ply,SBD,M
Boys,100,3,Brandon McClarnon,Frisco Centennial,95.25,199.58,111.13,179.17,489.88,Single-ply,SBD,M
Boys,100,4,Brandon Cambre,Frisco Independence,93.49,188.24,113.4,183.7,485.34,Single-ply,SBD,M
Boys,100,5,Cody Gonzales,Frisco Heritage,97.84,154.22,113.4,149.69,417.3,Single-ply,SBD,M
Boys,100,6,Jaren Vernon,Frisco,92.49,133.81,111.13,129.27,374.21,Single-ply,SBD,M
Boys,100,7,Isaiah Foster,Frisco Lone Star,93.67,183.7,124.74,,308.44,Single-ply,SB,M
Boys,110,1,Matt Hawk,Frisco Independence,103.78,254.01,145.15,226.8,625.96,Single-ply,SBD,M
Boys,110,2,Taylor Heyen,Frisco Centennial,103.06,208.65,120.2,195.04,523.9,Single-ply,SBD,M
Boys,110,3,Cesar Sandoval,Frisco Reedy,106.32,195.04,120.2,183.7,498.95,Single-ply,SBD,M
Boys,110,4,Christian Cappiello,Frisco,100.74,188.24,122.47,183.7,494.42,Single-ply,SBD,M
Boys,110,5,Mason Horton,Frisco Lone Star,107.82,165.56,129.27,192.78,487.61,Single-ply,SBD,M
Boys,110,6,Kyle Ford,Frisco Liberty,107.68,190.51,124.74,170.1,485.34,Single-ply,SBD,M
Boys,110,7,David Hall,Frisco,106.41,170.1,97.52,185.97,453.59,Single-ply,SBD,M
Boys,110,8,Kody Johnson,Frisco Heritage,101.11,149.69,111.13,174.63,435.45,Single-ply,SBD,M
Boys,125,1,Zach Saldana,Frisco Independence,123.56,265.35,158.76,219.99,644.1,Single-ply,SBD,M
Boys,125,2,Zach Zeman,Frisco Wakeland,123.33,254.01,142.88,238.14,635.03,Single-ply,SBD,M
Boys,125,3,Izeya Floyd,Frisco Reedy,123.65,229.06,151.95,222.26,603.28,Single-ply,SBD,M
Boys,125,4,Cody Ragsdale,Frisco Centennial,115.53,197.31,120.2,201.85,519.36,Single-ply,SBD,M
Boys,125,5,Ben Perry,Frisco Independence,117.75,204.12,115.67,188.24,508.02,Single-ply,SBD,M
Boys,125,6,Dreylan Washington,Frisco,113.76,181.44,124.74,185.97,492.15,Single-ply,SBD,M
Boys,125,7,Mac Lyell,Frisco Liberty,113.72,185.97,108.86,192.78,487.61,Single-ply,SBD,M
Boys,125,8,Issachar Whitaker,Frisco Lone Star,116.03,181.44,97.52,195.04,474,Single-ply,SBD,M
Boys,125,9,Jp Kruse,Frisco Reedy,118.21,197.31,92.99,163.29,453.59,Single-ply,SBD,M
Boys,125,DQ,Reese Cory,Frisco Lone Star,124.74,,,,,Single-ply,SBD,M
Boys,125+,1,Tucker Rowland,Frisco Heritage,132.68,217.72,176.9,217.72,612.35,Single-ply,SBD,M
Boys,125+,2,Cooper Gschwend,Frisco Independence,134.63,204.12,136.08,192.78,532.97,Single-ply,SBD,M
Boys,125+,3,Kaleb Arnold,Frisco Heritage,137.21,190.51,122.47,190.51,503.49,Single-ply,SBD,M
Boys,125+,DQ,Rafiti Ghirmai,Frisco Wakeland,132.22,,,,,Single-ply,SBD,M
