Name,Division,Sex,State,BodyweightKg,Squat1Kg,Squat2Kg,Squat3Kg,Best3SquatKg,Bench1Kg,Bench2Kg,Bench3Kg,Best3BenchKg,Deadlift1Kg,Deadlift2Kg,Deadlift3Kg,Best3DeadliftKg,TotalKg,Place,Event,Equipment
Veronika Vroharis,Open,F,NSW,46.2,85,90,-95,90,45,47.5,50,50,110,120,127.5,127.5,267.5,1,SBD,Raw
Pei Gan,Open,F,NSW,46.7,87.5,92.5,-95,92.5,60,62.5,-65,62.5,107.5,-115,-115,107.5,262.5,2,SBD,Raw
Hidemi Shishido,Open,F,NSW,50.45,112.5,120,-130,120,52.5,-55,-55,52.5,112.5,120,130,130,302.5,1,SBD,Raw
Jackie Ngo,Open,F,NSW,51.65,92.5,97.5,-102.5,97.5,47.5,50,52.5,52.5,122.5,132.5,-155,132.5,282.5,2,SBD,Raw
Natalie Bartolo,Open,F,NSW,51.65,92.5,-97.5,-97.5,92.5,52.5,55,57.5,57.5,100,102.5,105,105,255,3,SBD,Raw
Kristina Angeli,Open,F,ACT,56.45,100,105,110,110,62.5,67.5,70,70,110,115,117.5,117.5,297.5,1,SBD,Raw
Emily Medina,Open,F,NSW,56.9,90,-97.5,-102.5,90,55,57.5,-60,57.5,122.5,130,137.5,137.5,285,2,SBD,Raw
Kim Stevenson,Open,F,ACT,62.9,117.5,125,130,130,102.5,107.5,-111,107.5,125,132.5,-137.5,132.5,370,1,SBD,Raw
Katrina Tonkin,Open,F,ACT,61.7,120,127.5,130,130,62.5,-67.5,67.5,67.5,147.5,157.5,-162.5,157.5,355,2,SBD,Raw
Maree Houbert,Open,F,QLD,62.05,105,-112.5,112.5,112.5,57.5,62.5,65,65,152.5,162.5,165,165,342.5,3,SBD,Raw
Jacqueline Chmura,Open,F,WA,62.3,120,-127.5,-127.5,120,70,75,-77.5,75,137.5,147.5,-150,147.5,342.5,4,SBD,Raw
Lauren Parkinson,Open,F,WA,61.35,102.5,107.5,110,110,52.5,55,57.5,57.5,117.5,122.5,125,125,292.5,5,SBD,Raw
Amy Evans,Open,F,NSW,62.35,100,107.5,110,110,62.5,65,-67.5,65,110,117.5,-122.5,117.5,292.5,6,SBD,Raw
Melanie Green,Open,F,NSW,70.8,125,-135,135,135,70,75,-80,75,175,185,190.5,190.5,400.5,1,SBD,Raw
Rachele Griffin,Open,F,NSW,69.65,140,147.5,-150,147.5,75,80,-85,80,155,165,172.5,172.5,400,2,SBD,Raw
Courtney Miller,Open,F,NSW,71.3,140,147.5,-153,147.5,67.5,-72.5,72.5,72.5,160,172.5,180,180,400,3,SBD,Raw
Marlena Gabriel,Open,F,NSW,71.85,130,-137.5,140,140,72.5,77.5,80,80,152.5,167.5,177.5,177.5,397.5,4,SBD,Raw
Maer Jimenez,Open,F,NSW,71.5,130,137.5,142.5,142.5,65,67.5,70,70,165,175,-187.5,175,387.5,5,SBD,Raw
Katherine Valle,Open,F,WA,69.65,127.5,137.5,-140,137.5,70,77.5,-82.5,77.5,122.5,-130,130,130,345,6,SBD,Raw
Kristie Matthews,Open,F,ACT,70.3,110,120,125,125,65,70,-72.5,70,125,135,142.5,142.5,337.5,7,SBD,Raw
Emma Mellows,Open,F,NSW,70.5,105,115,120,120,67.5,72.5,-75,72.5,120,127.5,135,135,327.5,8,SBD,Raw
Siobhan Doyle,Open,F,WA,67.85,117.5,125,-130,125,65,-67.5,-67.5,65,125,132.5,135,135,325,9,SBD,Raw
Dion Stewart,Open,F,WA,66.9,95,-105,-105,95,50,52.5,55,55,145,155,-160,155,305,10,SBD,Raw
Iemaima Katieli,Open,F,NSW,81.1,130,137.5,140,140,75,-80,-80,75,150,162.5,170,170,385,1,SBD,Raw
Cammilla White,Open,F,NSW,82.9,140,147.5,-152.5,147.5,75,-80,-80,75,145,155,-165,155,377.5,2,SBD,Raw
Amanda Brown,Open,F,WA,80.3,122.5,127.5,-130,127.5,77.5,85,87.5,87.5,80,-82.5,-82.5,80,295,3,SBD,Raw
Sylvia McKenzie,Open,F,NSW,136.7,155,165,175,175,67.5,72.5,77.5,77.5,167.5,182.5,-190,182.5,435,1,SBD,Raw
Mirelle Khoury Geagea,Open,F,NSW,115.3,125,135,142.5,142.5,77.5,85,-87.5,85,177.5,192.5,-207.5,192.5,420,2,SBD,Raw
Kelly Wanray,Open,F,QLD,103.65,140,-150,-155,140,75,-80,-80,75,165,180,185,185,400,3,SBD,Raw
Cassandra Milligan,Open,F,NSW,130.7,110,120,130,130,67.5,72.5,-77.5,72.5,155,165,172.5,172.5,375,4,SBD,Raw
Shannon Delaney,Open,F,NSW,91.45,140,150,-160,150,55,60,-65,60,140,150,160,160,370,5,SBD,Raw
Carolina Pagadizabal,Open,F,NSW,97.85,105,-112.5,-117.5,105,60,62.5,-67.5,62.5,145,155,162.5,162.5,330,6,SBD,Raw
Lola Usback,Sub-Juniors,F,ACT,45.7,65,-70,-70,65,47.5,50,-52.5,50,105,112.5,-117.5,112.5,227.5,1,SBD,Raw
Isabelle Hemmings,Sub-Juniors,F,TAS,62.55,95,105,-112.5,105,50,55,-57.5,55,120,127.5,-135,127.5,287.5,1,SBD,Raw
Karen Ho,Juniors,F,NSW,51.75,80,87.5,92.5,92.5,40,-45,45,45,120,130,140,140,277.5,1,SBD,Raw
Rachel Jones,Juniors,F,NSW,56.85,142.5,147.5,152.5,152.5,70,75,77.5,77.5,160,170,-177.5,170,400,1,SBD,Raw
Therese Duong,Juniors,F,NSW,55.4,92.5,102.5,105,105,65,70,-72.5,70,112.5,122.5,-132.5,122.5,297.5,2,SBD,Raw
Gabrielle Green,Juniors,F,WA,61.85,102.5,110,115,115,62.5,67.5,-70,67.5,117.5,125,127.5,127.5,310,1,SBD,Raw
Elizabeth Napoli,Juniors,F,NSW,70.75,135,142.5,147.5,147.5,85,92.5,95,95,150,160,162.5,162.5,405,1,SBD,Raw
Isabella Devetak,Juniors,F,NSW,71.4,142.5,147.5,152.5,152.5,80,-85,-85,80,150,162.5,-175,162.5,395,2,SBD,Raw
Leeanne Hall,Masters 1,F,NSW,54.25,90,100,-107.5,100,50,55,-60,55,125,135,145,145,300,1,SBD,Raw
Steph Radovanovic,Masters 1,F,ACT,61.4,90,100,105,105,57.5,62.5,-65,62.5,132.5,142.5,150,150,317.5,1,SBD,Raw
Lin Donevska,Masters 1,F,NSW,62.55,87.5,92.5,97.5,97.5,67.5,72.5,-77.5,72.5,107.5,115,122.5,122.5,292.5,2,SBD,Raw
Angela Hudson,Masters 1,F,NSW,70.6,132.5,137.5,-140,137.5,87.5,92.5,-95,92.5,152.5,160,165,165,395,1,SBD,Raw
Carole O'Neil,Masters 1,F,VIC,80.75,105,-115,115,115,67.5,-72.5,-72.5,67.5,140,150,-157.5,150,332.5,1,SBD,Raw
Jennifer Cass,Masters 1,F,ACT,81.5,100,107.5,112.5,112.5,57.5,62.5,-65,62.5,117.5,125,132.5,132.5,307.5,2,SBD,Raw
Helen Bishop,Masters 2,F,WA,51.25,-70,75,-80,75,47.5,52.5,-55,52.5,95,-102.5,-102.5,95,222.5,1,SBD,Raw
Helen Allen,Masters 2,F,QLD,56.5,85,90,95,95,55,60,-62.5,60,137.5,147.5,152.5,152.5,307.5,1,SBD,Raw
Louise Sutton,Masters 2,F,NSW,56.7,90,95,-100,95,50,55,-57.5,55,120,125,127.5,127.5,277.5,2,SBD,Raw
Julie Henderson,Masters 2,F,TAS,81.3,110,120,125,125,72.5,75,77.5,77.5,135,145,150,150,352.5,1,SBD,Raw
Fatima Delane,Masters 2,F,WA,90.3,75,80,87.5,87.5,45,50,-52.5,50,110,120,130,130,267.5,1,SBD,Raw
Linda Lynch,Masters 3,F,QLD,70.2,-90,90,95,95,45,47.5,50,50,120,127.5,132.5,132.5,277.5,1,SBD,Raw
Cire Jairus Mendoza,Open,M,VIC,58.55,150,160,-162.5,160,107.5,112.5,-115,112.5,215,220,227.5,227.5,500,1,SBD,Raw
Danny Vuong,Open,M,NSW,58.9,170,180,-185.5,180,90,97.5,102.5,102.5,-170,175,187.5,187.5,470,2,SBD,Raw
Emmanuel Foster,Open,M,NSW,65.8,170,177.5,185,185,115,120,122.5,122.5,205,-212.5,-215,205,512.5,1,SBD,Raw
Aljon Yuzon,Open,M,NSW,73.35,185,195,-205,195,107.5,115,120,120,230,240,-250,240,555,1,SBD,Raw
Victor Ramirez,Open,M,NSW,73.3,180,187.5,-192.5,187.5,125,130,135,135,187.5,197.5,207.5,207.5,530,2,SBD,Raw
Nathan Tanis,Open,M,VIC,82.9,252.5,275,287.5,287.5,120,140,150,150,255,275,290,290,727.5,1,SBD,Raw
Callan Gibbons,Open,M,WA,82.9,225,235,242.5,242.5,135,145,-150,145,285,297.5,-312.5,297.5,685,2,SBD,Raw
Isheanesu Nyandoro,Open,M,WA,82.45,227.5,232.5,242.5,242.5,150,157.5,-162.5,157.5,280,-287.5,-290,280,680,3,SBD,Raw
Mitchell Ronan,Open,M,NSW,82,225,235,245,245,125,130,135,135,262.5,275,-302.5,275,655,4,SBD,Raw
Scott Meiklejohn,Open,M,QLD,82.6,210,225,230,230,147.5,160,162.5,162.5,235,250,257.5,257.5,650,5,SBD,Raw
Jay Raffaut,Open,M,NSW,81.95,205,-210,210,210,125,132.5,-135,132.5,245,252.5,257.5,257.5,600,6,SBD,Raw
Christopher Pengson,Open,M,VIC,82.6,190,197.5,-202.5,197.5,125,132.5,137.5,137.5,200,210,-215,210,545,7,SBD,Raw
Scott Clark,Open,M,ACT,82.2,160,170,-175,170,95,102.5,107.5,107.5,190,202.5,-212.5,202.5,480,8,SBD,Raw
Nicholas Clancy,Open,M,NSW,76.9,137.5,142.5,150,150,95,100,-105,100,180,190,195,195,445,9,SBD,Raw
Merlin Viet,Open,M,NSW,88.75,215,230,240,240,140,150,155,155,230,250,260,260,655,1,SBD,Raw
Marc De Szell,Open,M,NSW,90.85,200,210,-217.5,210,150,160,-167.5,160,250,265,-275,265,635,2,SBD,Raw
Evan McCloy,Open,M,NSW,92.3,205,220,227.5,227.5,140,150,160,160,205,220,237.5,237.5,625,3,SBD,Raw
Joneil Yuzon,Open,M,NSW,92.4,200,210,-220,210,130,137.5,-140,137.5,260,-280,-280,260,607.5,4,SBD,Raw
David Mason,Open,M,NSW,92.75,-190,190,200,200,117.5,125,-130,125,240,255,265,265,590,5,SBD,Raw
Christopher Aslan,Open,M,NSW,92.45,205,220,225,225,120,127.5,-132.5,127.5,-215,225,235,235,587.5,6,SBD,Raw
Josh Lanham,Open,M,NSW,90.85,190,200,-210,200,125,132.5,137.5,137.5,210,225,232.5,232.5,570,7,SBD,Raw
Paul Rucci,Open,M,WA,91.5,200,207.5,-210,207.5,135,145,-150,145,205,-225,-225,205,557.5,8,SBD,Raw
Florian Loock,Open,M,NSW,104.4,225,245,-255,245,195,207.5,-227.5,207.5,275,-287.5,-295,275,727.5,1,SBD,Raw
Josiah Malouf,Open,M,QLD,104.3,210,222.5,227.5,227.5,140,150,155,155,235,250,-260,250,632.5,2,SBD,Raw
James Carpenter,Open,M,NSW,102.65,195,205,215,215,147.5,155,160,160,225,237.5,245,245,620,3,SBD,Raw
Rob Bezant,Open,M,WA,100.3,185,195,-207.5,195,150,155,-157.5,155,-200,220,240,240,590,4,SBD,Raw
Shaun Highfield,Open,M,NSW,103.5,175,190,-200,190,135,147.5,-155,147.5,210,230,240,240,577.5,5,SBD,Raw
Carl Samson,Open,M,VIC,115.8,250,265,272.5,272.5,165,-190,-190,165,250,265,-272.5,265,702.5,1,SBD,Raw
Daniel Wade #2,Open,M,NSW,115.2,220,230,240,240,150,157.5,-162.5,157.5,230,242.5,260,260,657.5,2,SBD,Raw
Adam Huard,Open,M,NSW,138.65,260,272.5,280,280,160,-170,170,170,270,285,-300,285,735,1,SBD,Raw
Andrew Fraser,Open,M,NSW,127.7,250,-270,-270,250,160,170,-180,170,270,290,300,300,720,2,SBD,Raw
Zachary Wilcockson,Open,M,NSW,167.5,245,255,-260,255,127.5,135,-140,135,275,300,-332.5,300,690,3,SBD,Raw
Dominic Belgrove,Sub-Juniors,M,NSW,57.2,127.5,135,-150,135,57.5,62.5,-67.5,62.5,137.5,150,160,160,357.5,1,SBD,Raw
Levi Hall,Sub-Juniors,M,NSW,68.75,150,160,-170,160,62.5,70,80,80,145,160,170,170,410,1,SBD,Raw
Ewan Belgrove,Sub-Juniors,M,NSW,82.5,265,275,285,285,157.5,162.5,164.5,164.5,230,250.5,258,258,707.5,1,SBD,Raw
Benjamin Parraguez,Sub-Juniors,M,NSW,102.85,170,180,190,190,90,100,107.5,107.5,220,235,250,250,547.5,1,SBD,Raw
Julius Lim,Juniors,M,QLD,65.35,167.5,175,182.5,182.5,107.5,115,120,120,190,202.5,210,210,512.5,1,SBD,Raw
Danny Le,Juniors,M,NSW,64.05,165,172.5,175,175,107.5,115,117.5,117.5,185,200,-215.5,200,492.5,2,SBD,Raw
Cody Savage,Juniors,M,NSW,65.3,152.5,160,165,165,110,115,-117.5,115,185,-200,-200,185,465,3,SBD,Raw
Albon Averion,Juniors,M,NSW,65.9,132.5,140,147.5,147.5,80,-82.5,-85,80,205,-215.5,-215.5,205,432.5,4,SBD,Raw
Leonardo Sucitra,Juniors,M,WA,72.75,235,247.5,-251,247.5,140,147.5,150,150,275,292.5,-302.5,292.5,690,1,SBD,Raw
Joseph Zhuang,Juniors,M,NSW,72.95,212.5,222.5,-227.5,222.5,120,-125,-125,120,205,210,-215,210,552.5,2,SBD,Raw
Edward Yap,Juniors,M,WA,72.25,150,157.5,-162.5,157.5,95,102.5,-105,102.5,190,202.5,207.5,207.5,467.5,3,SBD,Raw
Tom Buckland,Juniors,M,NSW,82.8,225,240,-250,240,135,145,-152.5,145,255,270,280,280,665,1,SBD,Raw
Zane Haworth,Juniors,M,QLD,82.25,225,232.5,240,240,127.5,135,140,140,225,235,242.5,242.5,622.5,2,SBD,Raw
Thomas Hay,Juniors,M,NSW,81.8,170,182.5,-190,182.5,112.5,120,125,125,190,205,220,220,527.5,3,SBD,Raw
Alfred Pope,Juniors,M,QLD,81.7,207.5,212.5,-215,212.5,-122.5,-122.5,-122.5,,237.5,242.5,-245,242.5,,DQ,SBD,Raw
Daniel Felstein,Juniors,M,NSW,92.9,230,245,255,255,135,145,-152.5,145,270,285,292.5,292.5,692.5,1,SBD,Raw
Jesse Peak,Juniors,M,NSW,92,235,250,-260,250,140,150,-155,150,240,260,272.5,272.5,672.5,2,SBD,Raw
Wei Shen Wang,Juniors,M,WA,91.95,225,240,-242.5,240,130,-140,140,140,235,247.5,252.5,252.5,632.5,3,SBD,Raw
Matthew Shapiera,Juniors,M,QLD,92.65,217.5,230,-240,230,140,147.5,-150,147.5,240,-252.5,-255,240,617.5,4,SBD,Raw
Tony Luc,Juniors,M,WA,90.95,180,190,197.5,197.5,102.5,-107.5,-107.5,102.5,200,212.5,-217.5,212.5,512.5,5,SBD,Raw
Christopher Lambert,Juniors,M,NSW,90.45,167.5,180,-185,180,95,102.5,-107.5,102.5,175,190,-205,190,472.5,6,SBD,Raw
Danyael Anonuevo,Juniors,M,NSW,103.05,240,252.5,260,260,120,125,-127.5,125,250,260,270,270,655,1,SBD,Raw
William Brown #5,Juniors,M,NSW,119.25,310,325,-340,325,132.5,140,145,145,275,300,330,330,800,1,SBD,Raw
Sean Muir,Masters 1,M,QLD,82.5,180,195,-207.5,195,112.5,120,125,125,220,227.5,235,235,555,1,SBD,Raw
Andrew Renfrey,Masters 1,M,NSW,81,120,132.5,142.5,142.5,100,110,-115,110,170,182.5,190,190,442.5,2,SBD,Raw
Nick Belgrove,Masters 1,M,NSW,90.4,160,170,175,175,112.5,-117.5,117.5,117.5,190,-200,200,200,492.5,1,SBD,Raw
David Westwater,Masters 1,M,WA,91.65,167.5,175,-180,175,80,85,-90,85,185,192.5,197.5,197.5,457.5,2,SBD,Raw
Rob Aspey,Masters 1,M,NSW,103.75,170,190,200,200,120,132.5,-140,132.5,180,195,-205,195,527.5,1,SBD,Raw
Scott Hall,Masters 1,M,NSW,151.4,315,332.5,350.5,350.5,187.5,197.5,200,200,313,330,-332.5,330,880.5,1,SBD,Raw
Romano Gaspardis,Masters 2,M,ACT,91.2,162.5,170,175,175,87.5,95,-102.5,95,192.5,200,-207.5,200,470,1,SBD,Raw
Nick Rogley,Masters 2,M,NSW,103.5,192.5,200,210,210,130,137.5,140,140,230,245,253,253,603,1,SBD,Raw
Martin Reynolds,Masters 3,M,NSW,92.9,165,175,-180,175,127.5,135,-140,135,200,215,220,220,530,1,SBD,Raw
Harold Faulkner,Masters 3,M,NSW,89.5,-100,110,120,120,90,100,105,105,75,82.5,87.5,87.5,312.5,2,SBD,Raw
Bill Koppe,Masters 4,M,QLD,78.05,90,100,105,105,67.5,72.5,-77.5,72.5,120,130,135,135,312.5,1,SBD,Raw
Lee Pickles,Masters 2,F,NSW,50,,,,,37.5,40,42.5,42.5,,,,,42.5,1,B,Raw
Julie Henderson,Masters 2,F,TAS,81.35,,,,,75,77.5,80,80,,,,,80,1,B,Raw
Katrina Robertson,Masters 2,F,WA,94.55,,,,,60,65,70,70,,,,,70,1,B,Raw
David Greene,Open,M,NSW,58.6,,,,,120,125,127,127,,,,,127,1,B,Raw
Jonathon George,Open,M,NSW,65.5,,,,,140,147.5,152,152,,,,,152,1,B,Raw
Lewis Lusted,Open,M,WA,73,,,,,172.5,177.5,-181,177.5,,,,,177.5,1,B,Raw
Nicholas Jaie Lizzi,Open,M,WA,73.6,,,,,122.5,-125,-125,122.5,,,,,122.5,2,B,Raw
Mark Leembruggen,Open,M,NSW,86.4,,,,,155,-165,-165,155,,,,,155,1,B,Raw
Adam Kiem,Open,M,NSW,91.9,,,,,145,-155,-155,145,,,,,145,2,B,Raw
Florian Loock,Open,M,NSW,105,,,,,197.5,205,210,210,,,,,210,1,B,Raw
Abe Walton,Open,M,QLD,101.75,,,,,170,182.5,-187.5,182.5,,,,,182.5,2,B,Raw
Bradley Freestone,Open,M,NSW,99.2,,,,,160,167.5,170,170,,,,,170,3,B,Raw
Richard Hozjan,Open,M,NSW,113.7,,,,,210.5,215,-222.5,215,,,,,215,1,B,Raw
Linas Valuckas,Juniors,M,NSW,91.9,,,,,165,175,-180,175,,,,,175,1,B,Raw
Rod Sutton,Masters 2,M,NSW,73.95,,,,,100,107.5,-112.5,107.5,,,,,107.5,1,B,Raw
Patrick Whymark,Masters 2,M,NSW,101.5,,,,,135,137.5,140,140,,,,,140,1,B,Raw
Abbas Pordel,Masters 2,M,NSW,116.55,,,,,167.5,175,182.5,182.5,,,,,182.5,1,B,Raw
Steven Little,Masters 2,M,SA,122.75,,,,,175,185,192.5,192.5,,,,,192.5,1,B,Raw
Murray Wilkinson,Masters 2,M,NSW,127.05,,,,,120,130,-137.5,130,,,,,130,2,B,Raw
Maxwell Bristow,Masters 4,M,NSW,69.8,,,,,55,60,65,65,,,,,65,1,B,Raw
