Division,WeightClassKg,Place,Name,Team,BodyweightKg,Best3SquatKg,Best3BenchKg,Best3DeadliftKg,TotalKg,Equipment,Event,Sex
Boys,52,1,Mason Cottam,Burleson,51.71,133.81,58.97,140.61,333.39,Single-ply,SBD,M
Boys,56,1,Jason Jones,Burleson,55.79,147.42,88.45,190.51,426.38,Single-ply,SBD,M
Boys,56,2,Jabril Clayborne,North Crowley,55.79,113.4,70.31,149.69,333.39,Single-ply,SBD,M
Boys,56,3,David Cook,Burleson Centennial,53.43,108.86,68.04,136.08,312.98,Single-ply,SBD,M
Boys,60,1,Tyler Robinson,Burleson,58.97,158.76,90.72,176.9,426.38,Single-ply,SBD,M
Boys,60,2,Hunter Ford,Burleson Centennial,59.87,124.74,86.18,151.95,362.87,Single-ply,SBD,M
Boys,60,3,Mike Jones #2,Midlothian,59.78,124.74,83.91,136.08,344.73,Single-ply,SBD,M
Boys,60,4,Josua Oyewole,North Crowley,58.33,117.93,63.5,136.08,317.51,Single-ply,SBD,M
Boys,67.5,1,Ethan Haynes,Burleson,65.23,185.97,97.52,201.85,485.34,Single-ply,SBD,M
Boys,67.5,2,Houston Johnson,North Crowley,64.68,163.29,83.91,181.44,428.64,Single-ply,SBD,M
Boys,67.5,3,Steven Davis,Burleson Centennial,67.04,140.61,81.65,149.69,371.95,Single-ply,SBD,M
Boys,75,1,Casey Jackson,Burleson,72.76,158.76,90.72,181.44,430.91,Single-ply,SBD,M
Boys,75,2,Brayden Smith,Joshua,74.57,124.74,95.25,147.42,367.41,Single-ply,SBD,M
Boys,75,3,Tyrone Pettiford,North Crowley,68.86,117.93,65.77,158.76,342.46,Single-ply,SBD,M
Boys,75,4,Aaron Bodine,Joshua,70.67,111.13,81.65,142.88,335.66,Single-ply,SBD,M
Boys,82.5,1,Campbell Masteller,Burleson,82.1,222.26,140.61,217.72,580.6,Single-ply,SBD,M
Boys,82.5,2,Zane Hairston,Joshua,79.83,127.01,95.25,140.61,362.87,Single-ply,SBD,M
Boys,82.5,DQ,Jayton DeLeon,Midlothian,76.57,170.1,,,,Single-ply,SBD,M
Boys,90,1,Garrett Parkhill,Burleson Centennial,89.81,219.99,124.74,219.99,564.72,Single-ply,SBD,M
Boys,90,2,Corey Hartfield,North Crowley,87.54,201.85,86.18,226.8,514.83,Single-ply,SBD,M
Boys,90,3,Eric Ortega,Burleson Centennial,89.36,174.63,106.59,183.7,464.93,Single-ply,SBD,M
Boys,90,4,Caden Wells,Burleson,84.37,161.03,97.52,183.7,442.25,Single-ply,SBD,M
Boys,90,5,Justis Chaney,Joshua,88.54,158.76,104.33,158.76,421.84,Single-ply,SBD,M
Boys,90,6,Daniel Minchey,Cleburne,88.54,151.95,97.52,156.49,405.97,Single-ply,SBD,M
Boys,90,7,Sean McKinley,Joshua,87.18,145.15,108.86,147.42,401.43,Single-ply,SBD,M
Boys,100,1,Hayden Lewis,Burleson,96.98,204.12,154.22,222.26,580.6,Single-ply,SBD,M
Boys,100,2,Blake Edgington,Joshua,95.8,213.19,129.27,231.33,573.79,Single-ply,SBD,M
Boys,100,3,Michael Farnsworth,Midlothian,98.43,213.19,142.88,210.92,566.99,Single-ply,SBD,M
Boys,100,4,Cailon Washington,North Crowley,94.8,204.12,131.54,208.65,544.31,Single-ply,SBD,M
Boys,100,5,Andolio Alaniz,Cleburne,96.62,151.95,102.06,172.37,426.38,Single-ply,SBD,M
Boys,100,6,Cooper Walthall,Cleburne,90.9,158.76,88.45,170.1,417.3,Single-ply,SBD,M
Boys,100,DQ,Cole Porter,Burleson Centennial,98.7,,,,,Single-ply,SBD,M
Boys,100,DQ,Isiah Romero,Cleburne,90.9,,,,,Single-ply,SBD,M
Boys,90,DQ,Mathu Blanton,Cleburne,89.9,,,,,Single-ply,SBD,M
Boys,100,DQ,Lezra Dews,North Crowley,99.06,172.37,,,,Single-ply,SBD,M
Boys,110,1,Brayden Mercer,Burleson,108.59,267.62,188.24,263.08,718.94,Single-ply,SBD,M
Boys,110,2,Thomas Godi,Burleson Centennial,107.68,242.67,158.76,231.33,632.76,Single-ply,SBD,M
Boys,110,3,Dylan Hipsman,Midlothian,100.06,240.4,124.74,265.35,630.49,Single-ply,SBD,M
Boys,110,4,Kenneth Lay,Cleburne,106.96,204.12,127.01,190.51,521.63,Single-ply,SBD,M
Boys,110,5,Steven Pena,North Crowley,109.41,183.7,92.99,204.12,480.81,Single-ply,SBD,M
Boys,110,6,Michael Kornak,Burleson Centennial,103.69,188.24,99.79,181.44,469.47,Single-ply,SBD,M
Boys,110,7,Kelton Davis,North Crowley,106.32,147.42,113.4,129.27,390.09,Single-ply,SBD,M
Boys,125,1,Jaterrius Pleasant,Burleson,117.39,244.94,138.35,254.01,637.3,Single-ply,SBD,M
Boys,125,2,Abdullah Khan,North Crowley,111.67,206.38,136.08,206.38,548.85,Single-ply,SBD,M
Boys,125,3,Duane Johnson,Midlothian,110.31,188.24,131.54,192.78,512.56,Single-ply,SBD,M
Boys,125+,1,Richard Cuellar,Cleburne,126.37,247.21,127.01,190.51,564.72,Single-ply,SBD,M
Boys,125+,DQ,Luke Galan,Cleburne,134.17,,,,,Single-ply,SBD,M
